%YAML 1.1
%TAG !u! tag:unity3d.com,2011:
--- !u!114 &11400000
MonoBehaviour:
  m_ObjectHideFlags: 0
  m_CorrespondingSourceObject: {fileID: 0}
  m_PrefabInstance: {fileID: 0}
  m_PrefabAsset: {fileID: 0}
  m_GameObject: {fileID: 0}
  m_Enabled: 1
  m_EditorHideFlags: 0
  m_Script: {fileID: 11500000, guid: 79db7b02dc1cfcb47bc7f52196a910af, type: 3}
  m_Name: Enclosure_Vault
  m_EditorClassIdentifier: 
  type: {fileID: 11400000, guid: 6ea9ba90679c1f743b8d97073274607b, type: 2}
  part: {fileID: 141234491193356589, guid: 19672f09cc8a0db40babd85b3ac41cce, type: 3}
  entrys:
  - plug: {fileID: 11400000, guid: 194d206fff9bd26428063cc7fcb77819, type: 2}
    shape: Removed
  - plug: {fileID: 11400000, guid: 928730acd7e0b304487a41471fed4431, type: 2}
    shape: Open
  - plug: {fileID: 11400000, guid: a8caac80aa29e7d48906f8d54f0e95d5, type: 2}
    shape: Closed
  - plug: {fileID: 11400000, guid: 286c4f35248d89f45b872c9acf095df8, type: 2}
    shape: Single Door
  - plug: {fileID: 11400000, guid: 69b9a2854d58ad649aa5da3f3861cbd0, type: 2}
    shape: Double Door
  - plug: {fileID: 11400000, guid: 0ae7716460d252043bfe0facf8cdc3fd, type: 2}
    shape: Expanded
  - plug: {fileID: 11400000, guid: f0caf46066965bc43b0ee1f0d359684b, type: 2}
    shape: Rail
