%YAML 1.1
%TAG !u! tag:unity3d.com,2011:
--- !u!114 &11400000
MonoBehaviour:
  m_ObjectHideFlags: 0
  m_CorrespondingSourceObject: {fileID: 0}
  m_PrefabInstance: {fileID: 0}
  m_PrefabAsset: {fileID: 0}
  m_GameObject: {fileID: 0}
  m_Enabled: 1
  m_EditorHideFlags: 0
  m_Script: {fileID: 11500000, guid: 79db7b02dc1cfcb47bc7f52196a910af, type: 3}
  m_Name: Enclosure_Arched
  m_EditorClassIdentifier: 
  type: {fileID: 11400000, guid: 5637ec041f19c6e42b68eac169d4af35, type: 2}
  part: {fileID: 6872801329023868875, guid: 6840aef7747571a4fafabc2d3faafd13, type: 3}
  entrys:
  - plug: {fileID: 11400000, guid: 194d206fff9bd26428063cc7fcb77819, type: 2}
    shape: Removed
  - plug: {fileID: 11400000, guid: 928730acd7e0b304487a41471fed4431, type: 2}
    shape: Open
  - plug: {fileID: 11400000, guid: a8caac80aa29e7d48906f8d54f0e95d5, type: 2}
    shape: Closed
  - plug: {fileID: 11400000, guid: 69b9a2854d58ad649aa5da3f3861cbd0, type: 2}
    shape: Double Door
