%YAML 1.1
%TAG !u! tag:unity3d.com,2011:
--- !u!114 &11400000
MonoBehaviour:
  m_ObjectHideFlags: 0
  m_CorrespondingSourceObject: {fileID: 0}
  m_PrefabInstance: {fileID: 0}
  m_PrefabAsset: {fileID: 0}
  m_GameObject: {fileID: 0}
  m_Enabled: 1
  m_EditorHideFlags: 0
  m_Script: {fileID: 11500000, guid: 68153d474929f524c9cac2590574bda2, type: 3}
  m_Name: Vault
  m_EditorClassIdentifier: 
  connectionRules:
  - portA: {fileID: 11400000, guid: 6ea9ba90679c1f743b8d97073274607b, type: 2}
    portB: {fileID: 11400000, guid: 6ea9ba90679c1f743b8d97073274607b, type: 2}
    aConnectedToB: {fileID: 11400000, guid: 928730acd7e0b304487a41471fed4431, type: 2}
    bConnectedByA: {fileID: 11400000, guid: 928730acd7e0b304487a41471fed4431, type: 2}
    bConnectedToA: {fileID: 11400000, guid: 928730acd7e0b304487a41471fed4431, type: 2}
    aConnectedByB: {fileID: 11400000, guid: 928730acd7e0b304487a41471fed4431, type: 2}
  - portA: {fileID: 11400000, guid: 6ea9ba90679c1f743b8d97073274607b, type: 2}
    portB: {fileID: 11400000, guid: 5574c4ffd97881946b3eaa49d551bd9f, type: 2}
    aConnectedToB: {fileID: 11400000, guid: 286c4f35248d89f45b872c9acf095df8, type: 2}
    bConnectedByA: {fileID: 11400000, guid: 194d206fff9bd26428063cc7fcb77819, type: 2}
    bConnectedToA: {fileID: 11400000, guid: 194d206fff9bd26428063cc7fcb77819, type: 2}
    aConnectedByB: {fileID: 11400000, guid: 286c4f35248d89f45b872c9acf095df8, type: 2}
  - portA: {fileID: 11400000, guid: 6ea9ba90679c1f743b8d97073274607b, type: 2}
    portB: {fileID: 11400000, guid: 8bbd4ef46f64f7d4c8020a2f4d29918e, type: 2}
    aConnectedToB: {fileID: 11400000, guid: 69b9a2854d58ad649aa5da3f3861cbd0, type: 2}
    bConnectedByA: {fileID: 11400000, guid: 194d206fff9bd26428063cc7fcb77819, type: 2}
    bConnectedToA: {fileID: 11400000, guid: 194d206fff9bd26428063cc7fcb77819, type: 2}
    aConnectedByB: {fileID: 11400000, guid: 69b9a2854d58ad649aa5da3f3861cbd0, type: 2}
