%YAML 1.1
%TAG !u! tag:unity3d.com,2011:
--- !u!1045 &1
EditorBuildSettings:
  m_ObjectHideFlags: 0
  serializedVersion: 2
  m_Scenes:
  - enabled: 0
    path: 
    guid: 00000000000000000000000000000000
  - enabled: 1
    path: Assets/Scenes/PCG_Scene.unity
    guid: 994b502eba38c804ab44e8ee231b7634
  - enabled: 1
    path: Assets/Scenes/Static_Scene.unity
    guid: dc1de9499e403d2409adc323fb732dc9
  m_configObjects:
    com.unity.addressableassets: {fileID: 11400000, guid: 4890b05caf1c32347851e7768a891186,
      type: 2}
