# ProBuilder 4.2.3
# https://unity3d.com/unity/features/worldbuilding/probuilder
# 4/10/2020 5:41:38 PM

mtllib ./Wall_Door1_Cellar.mtl
o Wall_Door1_Cellar

g Wall_Door1_Cellar
v 6 0.1428571 0
v 6 0 0
v 5.853659 0 0
v 5.853659 0.1428571 0
v 6 0.2857144 0
v 5.707317 0 0
v 5.853659 0.2857144 0
v 6 0.4285715 0
v 5.707317 0.1428571 0
v 5.560976 0 0
v 5.853659 0.4285715 0
v 6 0.5714285 0
v 5.560976 0.1428571 0
v 5.414634 0 0
v 5.707317 0.2857144 0
v 5.853659 0.5714285 0
v 6 0.7142856 0
v 5.414634 0.1428571 0
v 5.268292 0 0
v 5.560976 0.2857144 0
v 5.707317 0.4285715 0
v 5.853659 0.7142856 0
v 6 0.8571429 0
v 5.268292 0.1428571 0
v 5.121951 0 0
v 5.707317 0.5714285 0
v 5.414634 0.2857144 0
v 5.560976 0.4285715 0
v 5.853659 0.8571429 0
v 6 1 0
v 5.121951 0.1428571 0
v 4.97561 0 0
v 5.707317 0.7142856 0
v 5.560976 0.5714285 0
v 5.268292 0.2857144 0
v 5.414634 0.4285715 0
v 5.853659 1 0
v 6 1.142857 0
v 4.97561 0.1428571 0
v 4.829268 0 0
v 5.707317 0.8571429 0
v 5.560976 0.7142856 0
v 5.414634 0.5714285 0
v 5.121951 0.2857144 0
v 5.268292 0.4285715 0
v 4.829268 0.1428571 0
v 4.682927 0 0
v 4.97561 0.2857144 0
v 5.121951 0.4285715 0
v 5.268292 0.5714285 0
v 5.414634 0.7142856 0
v 4.682927 0.1428571 0
v 4.536585 0 0
v 4.829268 0.2857144 0
v 4.97561 0.4285715 0
v 5.121951 0.5714285 0
v 4.536585 0.1428571 0
v 4.390244 0 0
v 4.682927 0.2857144 0
v 4.829268 0.4285715 0
v 4.390244 0.1428571 0
v 4.243902 0 0
v 4.536585 0.2857144 0
v 4.243902 0.1428571 0
v 4.097561 0 0
v 5.268292 0.7142856 0
v 4.97561 0.5714285 0
v 4.682927 0.4285715 0
v 4.390244 0.2857144 0
v 4.097561 0.1428571 0
v 3.95122 0 0
v 3.95122 0.1428571 0
v 4.243902 0.2857144 0
v 4.097561 0.2857144 0
v 3.95122 0.2857144 0
v 4.536585 0.4285715 0
v 4.829268 0.5714285 0
v 4.390244 0.4285715 0
v 4.243902 0.4285715 0
v 4.097561 0.4285715 0
v 3.95122 0.4285715 0
v 4.682927 0.5714285 0
v 4.536585 0.5714285 0
v 4.390244 0.5714285 0
v 4.243902 0.5714285 0
v 4.097561 0.5714285 0
v 3.95122 0.5714285 0
v 4.097561 0.7142856 0
v 3.95122 0.7142856 0
v 4.243902 0.7142856 0
v 4.390244 0.7142856 0
v 4.536585 0.7142856 0
v 4.682927 0.7142856 0
v 4.097561 0.8571429 0
v 3.95122 0.8571429 0
v 4.243902 0.8571429 0
v 4.390244 0.8571429 0
v 4.536585 0.8571429 0
v 4.097561 1 0
v 3.95122 1 0
v 4.243902 1 0
v 4.390244 1 0
v 4.097561 1.142857 0
v 3.95122 1.142857 0
v 4.243902 1.142857 0
v 4.097561 1.285714 0
v 3.95122 1.285714 0
v 4.682927 0.8571429 0
v 4.536585 1 0
v 4.390244 1.142857 0
v 4.243902 1.285714 0
v 4.097561 1.428571 0
v 3.95122 1.428571 0
v 4.682927 1 0
v 4.536585 1.142857 0
v 4.390244 1.285714 0
v 4.243902 1.428571 0
v 4.097561 1.571429 0
v 3.95122 1.571429 0
v 4.682927 1.142857 0
v 4.536585 1.285714 0
v 4.390244 1.428571 0
v 4.243902 1.571429 0
v 4.097561 1.714286 0
v 3.95122 1.714286 0
v 4.682927 1.285714 0
v 4.536585 1.428571 0
v 4.390244 1.571429 0
v 4.243902 1.714286 0
v 4.097561 1.857143 0
v 3.95122 1.857143 0
v 4.682927 1.428571 0
v 4.536585 1.571429 0
v 4.390244 1.714286 0
v 4.243902 1.857143 0
v 4.097561 2 0
v 3.95122 2 0
v 4.682927 1.571429 0
v 4.536585 1.714286 0
v 4.390244 1.857143 0
v 4.243902 2 0
v 4.097561 2.142857 0
v 3.95122 2.142857 0
v 4.682927 1.714286 0
v 4.536585 1.857143 0
v 4.390244 2 0
v 4.243902 2.142857 0
v 4.097561 2.285714 0
v 3.95122 2.285714 0
v 4.682927 1.857143 0
v 4.536585 2 0
v 4.390244 2.142857 0
v 4.243902 2.285714 0
v 4.682927 2 0
v 4.536585 2.142857 0
v 4.390244 2.285714 0
v 4.682927 2.142857 0
v 4.536585 2.285714 0
v 4.682927 2.285714 0
v 4.243902 2.428571 0
v 4.390244 2.428571 0
v 4.536585 2.428571 0
v 4.682927 2.428571 0
v 4.097561 2.428571 0
v 3.95122 2.428571 0
v 3.804878 2.285714 0
v 3.804878 2.428571 0
v 3.658537 2.285714 0
v 3.658537 2.428571 0
v 3.512195 2.285714 0
v 3.512195 2.428571 0
v 3.365854 2.285714 0
v 3.365854 2.428571 0
v 3.219512 2.285714 0
v 3.219512 2.428571 0
v 3.073171 2.285714 0
v 3.073171 2.428571 0
v 2.926829 2.285714 0
v 2.926829 2.428571 0
v 2.780488 2.285714 0
v 2.780488 2.428571 0
v 2.634146 2.285714 0
v 2.634146 2.428571 0
v 2.487805 2.285714 0
v 2.487805 2.428571 0
v 2.341463 2.285714 0
v 2.341463 2.428571 0
v 2.195122 2.285714 0
v 2.195122 2.428571 0
v 2.04878 2.285714 0
v 3.219512 2.571429 0
v 3.073171 2.571429 0
v 2.926829 2.571429 0
v 2.780488 2.571429 0
v 2.634146 2.571429 0
v 2.487805 2.571429 0
v 2.341463 2.571429 0
v 3.365854 2.571429 0
v 3.512195 2.571429 0
v 3.658537 2.571429 0
v 3.804878 2.571429 0
v 3.95122 2.571429 0
v 4.097561 2.571429 0
v 4.243902 2.571429 0
v 4.390244 2.571429 0
v 4.536585 2.571429 0
v 4.682927 2.571429 0
v 3.804878 2.714286 0
v 3.95122 2.714286 0
v 4.097561 2.714286 0
v 4.243902 2.714286 0
v 4.390244 2.714286 0
v 4.536585 2.714286 0
v 4.682927 2.714286 0
v 3.658537 2.714286 0
v 3.512195 2.714286 0
v 3.365854 2.714286 0
v 3.219512 2.714286 0
v 3.073171 2.714286 0
v 2.926829 2.714286 0
v 2.780488 2.714286 0
v 2.634146 2.714286 0
v 2.487805 2.714286 0
v 3.512195 2.857143 0
v 3.365854 2.857143 0
v 3.219512 2.857143 0
v 3.073171 2.857143 0
v 2.926829 2.857143 0
v 2.780488 2.857143 0
v 2.634146 2.857143 0
v 3.658537 2.857143 0
v 3.804878 2.857143 0
v 3.95122 2.857143 0
v 4.097561 2.857143 0
v 4.243902 2.857143 0
v 4.390244 2.857143 0
v 4.536585 2.857143 0
v 4.682927 2.857143 0
v 3.804878 3 0
v 3.95122 3 0
v 4.097561 3 0
v 4.243902 3 0
v 4.390244 3 0
v 4.536585 3 0
v 4.682927 3 0
v 3.658537 3 0
v 3.512195 3 0
v 3.365854 3 0
v 3.219512 3 0
v 3.073171 3 0
v 2.926829 3 0
v 2.780488 3 0
v 3.804878 3.142857 0
v 3.658537 3.142857 0
v 3.512195 3.142857 0
v 3.365854 3.142857 0
v 3.219512 3.142857 0
v 3.073171 3.142857 0
v 2.926829 3.142857 0
v 3.95122 3.142857 0
v 4.097561 3.142857 0
v 4.243902 3.142857 0
v 4.390244 3.142857 0
v 4.536585 3.142857 0
v 4.682927 3.142857 0
v 3.95122 3.285714 0
v 4.097561 3.285714 0
v 4.243902 3.285714 0
v 4.390244 3.285714 0
v 4.536585 3.285714 0
v 4.682927 3.285714 0
v 3.804878 3.285714 0
v 3.658537 3.285714 0
v 3.512195 3.285714 0
v 3.365854 3.285714 0
v 3.219512 3.285714 0
v 3.073171 3.285714 0
v 3.95122 3.428571 0
v 3.804878 3.428571 0
v 3.658537 3.428571 0
v 3.512195 3.428571 0
v 3.365854 3.428571 0
v 3.219512 3.428571 0
v 4.097561 3.428571 0
v 4.243902 3.428571 0
v 4.390244 3.428571 0
v 4.536585 3.428571 0
v 4.682927 3.428571 0
v 4.097561 3.571429 0
v 4.243902 3.571429 0
v 4.390244 3.571429 0
v 4.536585 3.571429 0
v 4.682927 3.571429 0
v 3.95122 3.571429 0
v 3.804878 3.571429 0
v 3.658537 3.571429 0
v 3.512195 3.571429 0
v 3.365854 3.571429 0
v 4.097561 3.714286 0
v 3.95122 3.714286 0
v 3.804878 3.714286 0
v 3.658537 3.714286 0
v 3.512195 3.714286 0
v 4.243902 3.714286 0
v 4.390244 3.714286 0
v 4.536585 3.714286 0
v 4.682927 3.714286 0
v 3.804878 3.857143 0
v 3.658537 3.857143 0
v 3.95122 3.857143 0
v 4.097561 3.857143 0
v 4.243902 3.857143 0
v 4.390244 3.857143 0
v 4.536585 3.857143 0
v 4.682927 3.857143 0
v 3.95122 4 0
v 4.097561 4 0
v 4.243902 4 0
v 4.390244 4 0
v 4.536585 4 0
v 4.682927 4 0
v 3.804878 4 0
v 3.658537 4 0
v 3.512195 3.857143 0
v 3.365854 3.714286 0
v 3.219512 3.571429 0
v 3.073171 3.428571 0
v 2.926829 3.285714 0
v 2.780488 3.142857 0
v 2.634146 3 0
v 2.487805 2.857143 0
v 2.341463 2.714286 0
v 2.195122 2.571429 0
v 2.04878 2.428571 0
v 2.926829 3.428571 0
v 2.780488 3.285714 0
v 2.634146 3.142857 0
v 2.487805 3 0
v 2.341463 2.857143 0
v 2.195122 2.714286 0
v 2.04878 2.571429 0
v 3.073171 3.571429 0
v 3.219512 3.714286 0
v 3.365854 3.857143 0
v 3.512195 4 0
v 2.926829 3.571429 0
v 3.073171 3.714286 0
v 3.219512 3.857143 0
v 3.365854 4 0
v 2.780488 3.428571 0
v 2.634146 3.285714 0
v 2.487805 3.142857 0
v 2.341463 3 0
v 2.195122 2.857143 0
v 2.04878 2.714286 0
v 2.780488 3.571429 0
v 2.634146 3.428571 0
v 2.487805 3.285714 0
v 2.341463 3.142857 0
v 2.195122 3 0
v 2.04878 2.857143 0
v 2.926829 3.714286 0
v 3.073171 3.857143 0
v 3.219512 4 0
v 2.195122 3.142857 0
v 2.04878 3 0
v 2.341463 3.285714 0
v 2.487805 3.428571 0
v 2.634146 3.571429 0
v 2.780488 3.714286 0
v 2.926829 3.857143 0
v 3.073171 4 0
v 2.195122 3.285714 0
v 2.341463 3.428571 0
v 2.487805 3.571429 0
v 2.634146 3.714286 0
v 2.780488 3.857143 0
v 2.926829 4 0
v 2.04878 3.142857 0
v 2.195122 3.428571 0
v 2.341463 3.571429 0
v 2.487805 3.714286 0
v 2.634146 3.857143 0
v 2.780488 4 0
v 2.04878 3.285714 0
v 1.902439 3 0
v 1.902439 3.142857 0
v 1.902439 2.857143 0
v 1.902439 2.714286 0
v 1.902439 2.571429 0
v 1.902439 2.428571 0
v 1.902439 2.285714 0
v 1.902439 2.142857 0
v 2.04878 2.142857 0
v 1.902439 2 0
v 2.04878 2 0
v 1.902439 1.857143 0
v 2.04878 1.857143 0
v 1.902439 1.714286 0
v 2.04878 1.714286 0
v 1.902439 1.571429 0
v 2.04878 1.571429 0
v 1.902439 1.428571 0
v 2.04878 1.428571 0
v 1.902439 1.285714 0
v 2.04878 1.285714 0
v 1.902439 1.142857 0
v 2.04878 1.142857 0
v 1.902439 1 0
v 2.04878 1 0
v 1.902439 0.8571429 0
v 2.04878 0.8571429 0
v 1.902439 0.7142856 0
v 2.04878 0.7142856 0
v 1.902439 0.5714285 0
v 2.04878 0.5714285 0
v 1.902439 0.4285715 0
v 2.04878 0.4285715 0
v 1.902439 0.2857144 0
v 2.04878 0.2857144 0
v 1.902439 0.1428571 0
v 2.04878 0.1428571 0
v 1.902439 0 0
v 2.04878 0 0
v 1.756098 0 0
v 1.756098 0.1428571 0
v 1.609756 0 0
v 1.756098 0.2857144 0
v 1.609756 0.1428571 0
v 1.463415 0 0
v 1.756098 0.4285715 0
v 1.463415 0.1428571 0
v 1.317073 0 0
v 1.609756 0.2857144 0
v 1.756098 0.5714285 0
v 1.317073 0.1428571 0
v 1.170732 0 0
v 1.463415 0.2857144 0
v 1.609756 0.4285715 0
v 1.756098 0.7142856 0
v 1.170732 0.1428571 0
v 1.02439 0 0
v 1.609756 0.5714285 0
v 1.317073 0.2857144 0
v 1.463415 0.4285715 0
v 1.756098 0.8571429 0
v 1.02439 0.1428571 0
v 0.8780489 0 0
v 1.609756 0.7142856 0
v 1.463415 0.5714285 0
v 1.170732 0.2857144 0
v 1.317073 0.4285715 0
v 1.756098 1 0
v 0.8780489 0.1428571 0
v 0.7317076 0 0
v 1.609756 0.8571429 0
v 1.463415 0.7142856 0
v 1.317073 0.5714285 0
v 1.02439 0.2857144 0
v 1.170732 0.4285715 0
v 0.7317076 0.1428571 0
v 0.5853658 0 0
v 0.8780489 0.2857144 0
v 1.02439 0.4285715 0
v 1.170732 0.5714285 0
v 1.317073 0.7142856 0
v 0.5853658 0.1428571 0
v 0.4390244 0 0
v 0.7317076 0.2857144 0
v 0.8780489 0.4285715 0
v 1.02439 0.5714285 0
v 0.4390244 0.1428571 0
v 0.2926826 0 0
v 0.5853658 0.2857144 0
v 0.7317076 0.4285715 0
v 0.2926826 0.1428571 0
v 0.1463413 0 0
v 0.4390244 0.2857144 0
v 0.1463413 0.1428571 0
v 0 0 0
v 0 0.1428571 0
v 0.2926826 0.2857144 0
v 0.1463413 0.2857144 0
v 0 0.2857144 0
v 0.5853658 0.4285715 0
v 0.8780489 0.5714285 0
v 0.4390244 0.4285715 0
v 0.2926826 0.4285715 0
v 0.1463413 0.4285715 0
v 0 0.4285715 0
v 0.7317076 0.5714285 0
v 0.5853658 0.5714285 0
v 0.4390244 0.5714285 0
v 0.2926826 0.5714285 0
v 0.1463413 0.5714285 0
v 0 0.5714285 0
v 0.1463413 0.7142856 0
v 0 0.7142856 0
v 0.2926826 0.7142856 0
v 0.4390244 0.7142856 0
v 0.5853658 0.7142856 0
v 0.7317076 0.7142856 0
v 0.1463413 0.8571429 0
v 0 0.8571429 0
v 0.2926826 0.8571429 0
v 0.4390244 0.8571429 0
v 0.5853658 0.8571429 0
v 0.1463413 1 0
v 0 1 0
v 0.2926826 1 0
v 0.4390244 1 0
v 0.1463413 1.142857 0
v 0 1.142857 0
v 0.2926826 1.142857 0
v 0.1463413 1.285714 0
v 0 1.285714 0
v 0.7317076 0.8571429 0
v 0.5853658 1 0
v 0.4390244 1.142857 0
v 0.2926826 1.285714 0
v 0.1463413 1.428571 0
v 0 1.428571 0
v 0.7317076 1 0
v 0.5853658 1.142857 0
v 0.4390244 1.285714 0
v 0.2926826 1.428571 0
v 0.1463413 1.571429 0
v 0 1.571429 0
v 0.7317076 1.142857 0
v 0.5853658 1.285714 0
v 0.4390244 1.428571 0
v 0.2926826 1.571429 0
v 0.1463413 1.714286 0
v 0 1.714286 0
v 0.7317076 1.285714 0
v 0.5853658 1.428571 0
v 0.4390244 1.571429 0
v 0.2926826 1.714286 0
v 0.1463413 1.857143 0
v 0 1.857143 0
v 0.7317076 1.428571 0
v 0.5853658 1.571429 0
v 0.4390244 1.714286 0
v 0.2926826 1.857143 0
v 0.1463413 2 0
v 0 2 0
v 0.7317076 1.571429 0
v 0.5853658 1.714286 0
v 0.4390244 1.857143 0
v 0.2926826 2 0
v 0.1463413 2.142857 0
v 0 2.142857 0
v 0.7317076 1.714286 0
v 0.5853658 1.857143 0
v 0.4390244 2 0
v 0.2926826 2.142857 0
v 0.1463413 2.285714 0
v 0 2.285714 0
v 0.7317076 1.857143 0
v 0.5853658 2 0
v 0.4390244 2.142857 0
v 0.2926826 2.285714 0
v 0.1463413 2.428571 0
v 0 2.428571 0
v 0.7317076 2 0
v 0.5853658 2.142857 0
v 0.4390244 2.285714 0
v 0.2926826 2.428571 0
v 0.1463413 2.571429 0
v 0 2.571429 0
v 0.7317076 2.142857 0
v 0.5853658 2.285714 0
v 0.4390244 2.428571 0
v 0.2926826 2.571429 0
v 0.1463413 2.714286 0
v 0 2.714286 0
v 0.7317076 2.285714 0
v 0.5853658 2.428571 0
v 0.4390244 2.571429 0
v 0.2926826 2.714286 0
v 0.1463413 2.857143 0
v 0 2.857143 0
v 0.7317076 2.428571 0
v 0.5853658 2.571429 0
v 0.4390244 2.714286 0
v 0.2926826 2.857143 0
v 0.1463413 3 0
v 0 3 0
v 0.7317076 2.571429 0
v 0.5853658 2.714286 0
v 0.4390244 2.857143 0
v 0.2926826 3 0
v 0.1463413 3.142857 0
v 0 3.142857 0
v 0.7317076 2.714286 0
v 0.5853658 2.857143 0
v 0.4390244 3 0
v 0.2926826 3.142857 0
v 0.1463413 3.285714 0
v 0 3.285714 0
v 0.7317076 2.857143 0
v 0.5853658 3 0
v 0.4390244 3.142857 0
v 0.2926826 3.285714 0
v 0.1463413 3.428571 0
v 0 3.428571 0
v 0.7317076 3 0
v 0.5853658 3.142857 0
v 0.4390244 3.285714 0
v 0.2926826 3.428571 0
v 0.1463413 3.571429 0
v 0 3.571429 0
v 0.7317076 3.142857 0
v 0.5853658 3.285714 0
v 0.4390244 3.428571 0
v 0.2926826 3.571429 0
v 0.1463413 3.714286 0
v 0 3.714286 0
v 0.7317076 3.285714 0
v 0.5853658 3.428571 0
v 0.4390244 3.571429 0
v 0.2926826 3.714286 0
v 0.1463413 3.857143 0
v 0 3.857143 0
v 0.7317076 3.428571 0
v 0.5853658 3.571429 0
v 0.4390244 3.714286 0
v 0.2926826 3.857143 0
v 0.1463413 4 0
v 0 4 0
v 0.7317076 3.571429 0
v 0.5853658 3.714286 0
v 0.4390244 3.857143 0
v 0.2926826 4 0
v 0.7317076 3.714286 0
v 0.5853658 3.857143 0
v 0.4390244 4 0
v 0.7317076 3.857143 0
v 0.5853658 4 0
v 0.7317076 4 0
v 6 4 0
v 5.853659 3.857143 0
v 5.853659 4 0
v 6 3.857143 0
v 5.707317 3.857143 0
v 5.707317 4 0
v 5.853659 3.714286 0
v 6 3.714286 0
v 5.560976 3.857143 0
v 5.560976 4 0
v 5.707317 3.714286 0
v 5.853659 3.571429 0
v 6 3.571429 0
v 5.414634 3.857143 0
v 5.414634 4 0
v 5.560976 3.714286 0
v 5.707317 3.571429 0
v 5.853659 3.428571 0
v 6 3.428571 0
v 5.268292 3.857143 0
v 5.268292 4 0
v 5.414634 3.714286 0
v 5.560976 3.571429 0
v 5.707317 3.428571 0
v 5.853659 3.285714 0
v 6 3.285714 0
v 5.268292 3.714286 0
v 5.414634 3.571429 0
v 5.560976 3.428571 0
v 5.707317 3.285714 0
v 5.853659 3.142857 0
v 6 3.142857 0
v 5.268292 3.571429 0
v 5.414634 3.428571 0
v 5.560976 3.285714 0
v 5.707317 3.142857 0
v 5.853659 3 0
v 6 3 0
v 5.268292 3.428571 0
v 5.414634 3.285714 0
v 5.560976 3.142857 0
v 5.707317 3 0
v 5.853659 2.857143 0
v 6 2.857143 0
v 5.268292 3.285714 0
v 5.414634 3.142857 0
v 5.560976 3 0
v 5.707317 2.857143 0
v 5.853659 2.714286 0
v 6 2.714286 0
v 5.268292 3.142857 0
v 5.414634 3 0
v 5.560976 2.857143 0
v 5.707317 2.714286 0
v 5.853659 2.571429 0
v 6 2.571429 0
v 5.268292 3 0
v 5.414634 2.857143 0
v 5.560976 2.714286 0
v 5.707317 2.571429 0
v 5.853659 2.428571 0
v 6 2.428571 0
v 5.268292 2.857143 0
v 5.414634 2.714286 0
v 5.560976 2.571429 0
v 5.707317 2.428571 0
v 5.853659 2.285714 0
v 6 2.285714 0
v 5.268292 2.714286 0
v 5.414634 2.571429 0
v 5.560976 2.428571 0
v 5.707317 2.285714 0
v 5.853659 2.142857 0
v 6 2.142857 0
v 5.268292 2.571429 0
v 5.414634 2.428571 0
v 5.560976 2.285714 0
v 5.707317 2.142857 0
v 5.853659 2 0
v 6 2 0
v 5.268292 2.428571 0
v 5.414634 2.285714 0
v 5.560976 2.142857 0
v 5.707317 2 0
v 5.853659 1.857143 0
v 6 1.857143 0
v 5.268292 2.285714 0
v 5.414634 2.142857 0
v 5.560976 2 0
v 5.707317 1.857143 0
v 5.853659 1.714286 0
v 6 1.714286 0
v 5.268292 2.142857 0
v 5.414634 2 0
v 5.560976 1.857143 0
v 5.707317 1.714286 0
v 5.853659 1.571429 0
v 6 1.571429 0
v 5.268292 2 0
v 5.414634 1.857143 0
v 5.560976 1.714286 0
v 5.707317 1.571429 0
v 5.853659 1.428571 0
v 6 1.428571 0
v 5.268292 1.857143 0
v 5.414634 1.714286 0
v 5.560976 1.571429 0
v 5.707317 1.428571 0
v 5.853659 1.285714 0
v 6 1.285714 0
v 5.268292 1.714286 0
v 5.414634 1.571429 0
v 5.560976 1.428571 0
v 5.707317 1.285714 0
v 5.853659 1.142857 0
v 5.707317 1.142857 0
v 5.707317 1 0
v 5.560976 1.285714 0
v 5.414634 1.428571 0
v 5.560976 1.142857 0
v 5.560976 0.8571429 0
v 5.560976 1 0
v 5.414634 0.8571429 0
v 5.414634 1.285714 0
v 5.414634 1 0
v 5.414634 1.142857 0
v 5.268292 0.8571429 0
v 5.268292 1 0
v 5.268292 1.142857 0
v 5.268292 1.285714 0
v 5.121951 0.7142856 0
v 5.121951 0.8571429 0
v 4.97561 0.7142856 0
v 5.121951 1 0
v 4.829268 0.7142856 0
v 4.97561 0.8571429 0
v 4.829268 0.8571429 0
v 5.121951 1.142857 0
v 4.97561 1 0
v 4.829268 1 0
v 4.97561 1.142857 0
v 4.829268 1.142857 0
v 5.121951 1.285714 0
v 4.97561 1.285714 0
v 4.829268 1.285714 0
v 5.268292 1.428571 0
v 5.121951 1.428571 0
v 5.268292 1.571429 0
v 4.97561 1.428571 0
v 4.829268 1.428571 0
v 5.121951 1.571429 0
v 4.97561 1.571429 0
v 4.829268 1.571429 0
v 5.121951 1.714286 0
v 4.97561 1.714286 0
v 4.829268 1.714286 0
v 5.121951 1.857143 0
v 4.97561 1.857143 0
v 4.829268 1.857143 0
v 5.121951 2 0
v 4.97561 2 0
v 4.829268 2 0
v 5.121951 2.142857 0
v 4.97561 2.142857 0
v 4.829268 2.142857 0
v 5.121951 2.285714 0
v 4.97561 2.285714 0
v 4.829268 2.285714 0
v 5.121951 2.428571 0
v 4.97561 2.428571 0
v 4.829268 2.428571 0
v 5.121951 2.571429 0
v 4.97561 2.571429 0
v 4.829268 2.571429 0
v 5.121951 2.714286 0
v 4.97561 2.714286 0
v 4.829268 2.714286 0
v 5.121951 2.857143 0
v 4.97561 2.857143 0
v 4.829268 2.857143 0
v 5.121951 3 0
v 4.97561 3 0
v 4.829268 3 0
v 5.121951 3.142857 0
v 4.97561 3.142857 0
v 4.829268 3.142857 0
v 5.121951 3.285714 0
v 4.97561 3.285714 0
v 4.829268 3.285714 0
v 5.121951 3.428571 0
v 4.97561 3.428571 0
v 4.829268 3.428571 0
v 5.121951 3.571429 0
v 4.97561 3.571429 0
v 4.829268 3.571429 0
v 5.121951 3.714286 0
v 4.97561 3.714286 0
v 4.829268 3.714286 0
v 5.121951 3.857143 0
v 4.97561 3.857143 0
v 4.829268 3.857143 0
v 5.121951 4 0
v 4.97561 4 0
v 4.829268 4 0
v 2.634146 4 0
v 2.487805 3.857143 0
v 2.341463 3.714286 0
v 2.195122 3.571429 0
v 2.04878 3.428571 0
v 1.902439 3.285714 0
v 2.487805 4 0
v 2.341463 3.857143 0
v 2.195122 3.714286 0
v 2.04878 3.571429 0
v 1.902439 3.428571 0
v 2.04878 3.714286 0
v 1.902439 3.571429 0
v 2.195122 3.857143 0
v 2.341463 4 0
v 2.195122 4 0
v 2.04878 3.857143 0
v 1.902439 3.714286 0
v 2.04878 4 0
v 1.902439 3.857143 0
v 1.902439 4 0
v 0.8780489 4 0
v 0.8780489 3.857143 0
v 1.02439 4 0
v 0.8780489 3.714286 0
v 1.02439 3.857143 0
v 0.8780489 3.571429 0
v 1.170732 4 0
v 1.02439 3.714286 0
v 0.8780489 3.428571 0
v 1.170732 3.857143 0
v 1.02439 3.571429 0
v 0.8780489 3.285714 0
v 1.317073 4 0
v 1.170732 3.714286 0
v 1.02439 3.428571 0
v 0.8780489 3.142857 0
v 1.317073 3.857143 0
v 1.170732 3.571429 0
v 1.02439 3.285714 0
v 0.8780489 3 0
v 1.463415 4 0
v 1.317073 3.714286 0
v 1.170732 3.428571 0
v 1.02439 3.142857 0
v 0.8780489 2.857143 0
v 1.463415 3.857143 0
v 1.317073 3.571429 0
v 1.170732 3.285714 0
v 1.02439 3 0
v 0.8780489 2.714286 0
v 1.463415 3.714286 0
v 1.317073 3.428571 0
v 1.170732 3.142857 0
v 1.02439 2.857143 0
v 0.8780489 2.571429 0
v 1.463415 3.571429 0
v 1.317073 3.285714 0
v 1.170732 3 0
v 1.02439 2.714286 0
v 0.8780489 2.428571 0
v 1.463415 3.428571 0
v 1.317073 3.142857 0
v 1.170732 2.857143 0
v 1.02439 2.571429 0
v 0.8780489 2.285714 0
v 1.463415 3.285714 0
v 1.317073 3 0
v 1.170732 2.714286 0
v 1.02439 2.428571 0
v 0.8780489 2.142857 0
v 1.463415 3.142857 0
v 1.317073 2.857143 0
v 1.170732 2.571429 0
v 1.02439 2.285714 0
v 0.8780489 2 0
v 1.463415 3 0
v 1.317073 2.714286 0
v 1.170732 2.428571 0
v 1.02439 2.142857 0
v 0.8780489 1.857143 0
v 1.463415 2.857143 0
v 1.317073 2.571429 0
v 1.170732 2.285714 0
v 1.02439 2 0
v 0.8780489 1.714286 0
v 1.463415 2.714286 0
v 1.317073 2.428571 0
v 1.170732 2.142857 0
v 1.02439 1.857143 0
v 0.8780489 1.571429 0
v 1.463415 2.571429 0
v 1.317073 2.285714 0
v 1.170732 2 0
v 1.02439 1.714286 0
v 0.8780489 1.428571 0
v 1.463415 2.428571 0
v 1.317073 2.142857 0
v 1.170732 1.857143 0
v 1.02439 1.571429 0
v 0.8780489 1.285714 0
v 1.463415 2.285714 0
v 1.317073 2 0
v 1.170732 1.714286 0
v 1.02439 1.428571 0
v 0.8780489 1.142857 0
v 1.463415 2.142857 0
v 1.317073 1.857143 0
v 1.170732 1.571429 0
v 1.02439 1.285714 0
v 0.8780489 1 0
v 1.463415 2 0
v 1.317073 1.714286 0
v 1.170732 1.428571 0
v 1.02439 1.142857 0
v 0.8780489 0.8571429 0
v 1.463415 1.857143 0
v 1.317073 1.571429 0
v 1.170732 1.285714 0
v 1.02439 1 0
v 0.8780489 0.7142856 0
v 1.02439 0.8571429 0
v 1.02439 0.7142856 0
v 1.170732 1.142857 0
v 1.317073 1.428571 0
v 1.170732 1 0
v 1.170732 0.7142856 0
v 1.170732 0.8571429 0
v 1.317073 1.285714 0
v 1.317073 0.8571429 0
v 1.317073 1 0
v 1.317073 1.142857 0
v 1.463415 0.8571429 0
v 1.463415 1 0
v 1.609756 1 0
v 1.463415 1.142857 0
v 1.463415 1.285714 0
v 1.756098 1.142857 0
v 1.609756 1.142857 0
v 1.756098 1.285714 0
v 1.609756 1.285714 0
v 1.756098 1.428571 0
v 1.463415 1.428571 0
v 1.609756 1.428571 0
v 1.756098 1.571429 0
v 1.463415 1.571429 0
v 1.609756 1.571429 0
v 1.756098 1.714286 0
v 1.463415 1.714286 0
v 1.609756 1.714286 0
v 1.756098 1.857143 0
v 1.609756 1.857143 0
v 1.756098 2 0
v 1.609756 2 0
v 1.756098 2.142857 0
v 1.609756 2.142857 0
v 1.756098 2.285714 0
v 1.609756 2.285714 0
v 1.756098 2.428571 0
v 1.609756 2.428571 0
v 1.756098 2.571429 0
v 1.609756 2.571429 0
v 1.756098 2.714286 0
v 1.609756 2.714286 0
v 1.756098 2.857143 0
v 1.609756 2.857143 0
v 1.756098 3 0
v 1.609756 3 0
v 1.756098 3.142857 0
v 1.609756 3.142857 0
v 1.756098 3.285714 0
v 1.609756 3.285714 0
v 1.756098 3.428571 0
v 1.609756 3.428571 0
v 1.756098 3.571429 0
v 1.609756 3.571429 0
v 1.756098 3.714286 0
v 1.609756 3.714286 0
v 1.756098 3.857143 0
v 1.609756 3.857143 0
v 1.756098 4 0
v 1.609756 4 0

vt 0.75 0.01785707
vt 0.75 0
vt 0.7317073 0
vt 0.7317073 0.01785707
vt 0.75 0.03571427
vt 0.7134147 0
vt 0.7317073 0.03571427
vt 0.75 0.05357146
vt 0.7134147 0.01785707
vt 0.695122 0
vt 0.7317073 0.05357146
vt 0.75 0.07142854
vt 0.695122 0.01785707
vt 0.6768293 0
vt 0.7134147 0.03571427
vt 0.7317073 0.07142854
vt 0.75 0.08928573
vt 0.6768293 0.01785707
vt 0.6585364 0
vt 0.695122 0.03571427
vt 0.7134147 0.05357146
vt 0.7317073 0.08928573
vt 0.75 0.1071429
vt 0.6585364 0.01785707
vt 0.640244 0
vt 0.7134147 0.07142854
vt 0.6768293 0.03571427
vt 0.695122 0.05357146
vt 0.7317073 0.1071429
vt 0.75 0.125
vt 0.640244 0.01785707
vt 0.6219511 0
vt 0.7134147 0.08928573
vt 0.695122 0.07142854
vt 0.6585364 0.03571427
vt 0.6768293 0.05357146
vt 0.7317073 0.125
vt 0.75 0.1428571
vt 0.6219511 0.01785707
vt 0.6036584 0
vt 0.7134147 0.1071429
vt 0.695122 0.08928573
vt 0.6768293 0.07142854
vt 0.640244 0.03571427
vt 0.6585364 0.05357146
vt 0.6036584 0.01785707
vt 0.5853658 0
vt 0.6219511 0.03571427
vt 0.640244 0.05357146
vt 0.6585364 0.07142854
vt 0.6768293 0.08928573
vt 0.5853658 0.01785707
vt 0.5670731 0
vt 0.6036584 0.03571427
vt 0.6219511 0.05357146
vt 0.640244 0.07142854
vt 0.5670731 0.01785707
vt 0.5487804 0
vt 0.5853658 0.03571427
vt 0.6036584 0.05357146
vt 0.5487804 0.01785707
vt 0.5304878 0
vt 0.5670731 0.03571427
vt 0.5304878 0.01785707
vt 0.5121951 0
vt 0.6585364 0.08928573
vt 0.6219511 0.07142854
vt 0.5853658 0.05357146
vt 0.5487804 0.03571427
vt 0.5121951 0.01785707
vt 0.4939024 0
vt 0.4939024 0.01785707
vt 0.5304878 0.03571427
vt 0.5121951 0.03571427
vt 0.4939024 0.03571427
vt 0.5670731 0.05357146
vt 0.6036584 0.07142854
vt 0.5487804 0.05357146
vt 0.5304878 0.05357146
vt 0.5121951 0.05357146
vt 0.4939024 0.05357146
vt 0.5853658 0.07142854
vt 0.5670731 0.07142854
vt 0.5487804 0.07142854
vt 0.5304878 0.07142854
vt 0.5121951 0.07142854
vt 0.4939024 0.07142854
vt 0.5121951 0.08928573
vt 0.4939024 0.08928573
vt 0.5304878 0.08928573
vt 0.5487804 0.08928573
vt 0.5670731 0.08928573
vt 0.5853658 0.08928573
vt 0.5121951 0.1071429
vt 0.4939024 0.1071429
vt 0.5304878 0.1071429
vt 0.5487804 0.1071429
vt 0.5670731 0.1071429
vt 0.5121951 0.125
vt 0.4939024 0.125
vt 0.5304878 0.125
vt 0.5487804 0.125
vt 0.5121951 0.1428571
vt 0.4939024 0.1428571
vt 0.5304878 0.1428571
vt 0.5121951 0.1607143
vt 0.4939024 0.1607143
vt 0.5853658 0.1071429
vt 0.5670731 0.125
vt 0.5487804 0.1428571
vt 0.5304878 0.1607143
vt 0.5121951 0.1785713
vt 0.4939024 0.1785713
vt 0.5853658 0.125
vt 0.5670731 0.1428571
vt 0.5487804 0.1607143
vt 0.5304878 0.1785713
vt 0.5121951 0.1964287
vt 0.4939024 0.1964287
vt 0.5853658 0.1428571
vt 0.5670731 0.1607143
vt 0.5487804 0.1785713
vt 0.5304878 0.1964287
vt 0.5121951 0.2142857
vt 0.4939024 0.2142857
vt 0.5853658 0.1607143
vt 0.5670731 0.1785713
vt 0.5487804 0.1964287
vt 0.5304878 0.2142857
vt 0.5121951 0.2321429
vt 0.4939024 0.2321429
vt 0.5853658 0.1785713
vt 0.5670731 0.1964287
vt 0.5487804 0.2142857
vt 0.5304878 0.2321429
vt 0.5121951 0.25
vt 0.4939024 0.25
vt 0.5853658 0.1964287
vt 0.5670731 0.2142857
vt 0.5487804 0.2321429
vt 0.5304878 0.25
vt 0.5121951 0.2678571
vt 0.4939024 0.2678571
vt 0.5853658 0.2142857
vt 0.5670731 0.2321429
vt 0.5487804 0.25
vt 0.5304878 0.2678571
vt 0.5121951 0.2857141
vt 0.4939024 0.2857141
vt 0.5853658 0.2321429
vt 0.5670731 0.25
vt 0.5487804 0.2678571
vt 0.5304878 0.2857141
vt 0.5853658 0.25
vt 0.5670731 0.2678571
vt 0.5487804 0.2857141
vt 0.5853658 0.2678571
vt 0.5670731 0.2857141
vt 0.5853658 0.2857141
vt 0.5304878 0.3035715
vt 0.5487804 0.3035715
vt 0.5670731 0.3035715
vt 0.5853658 0.3035715
vt 0.5121951 0.3035715
vt 0.4939024 0.3035715
vt 0.4756098 0.2857141
vt 0.4756098 0.3035715
vt 0.4573171 0.2857141
vt 0.4573171 0.3035715
vt 0.4390244 0.2857141
vt 0.4390244 0.3035715
vt 0.4207318 0.2857141
vt 0.4207318 0.3035715
vt 0.4024391 0.2857141
vt 0.4024391 0.3035715
vt 0.3841465 0.2857141
vt 0.3841465 0.3035715
vt 0.3658535 0.2857141
vt 0.3658535 0.3035715
vt 0.3475609 0.2857141
vt 0.3475609 0.3035715
vt 0.3292682 0.2857141
vt 0.3292682 0.3035715
vt 0.3109756 0.2857141
vt 0.3109756 0.3035715
vt 0.2926829 0.2857141
vt 0.2926829 0.3035715
vt 0.2743902 0.2857141
vt 0.2743902 0.3035715
vt 0.2560976 0.2857141
vt 0.4024391 0.3214285
vt 0.3841465 0.3214285
vt 0.3658535 0.3214285
vt 0.3475609 0.3214285
vt 0.3292682 0.3214285
vt 0.3109756 0.3214285
vt 0.2926829 0.3214285
vt 0.4207318 0.3214285
vt 0.4390244 0.3214285
vt 0.4573171 0.3214285
vt 0.4756098 0.3214285
vt 0.4939024 0.3214285
vt 0.5121951 0.3214285
vt 0.5304878 0.3214285
vt 0.5487804 0.3214285
vt 0.5670731 0.3214285
vt 0.5853658 0.3214285
vt 0.4756098 0.3392859
vt 0.4939024 0.3392859
vt 0.5121951 0.3392859
vt 0.5304878 0.3392859
vt 0.5487804 0.3392859
vt 0.5670731 0.3392859
vt 0.5853658 0.3392859
vt 0.4573171 0.3392859
vt 0.4390244 0.3392859
vt 0.4207318 0.3392859
vt 0.4024391 0.3392859
vt 0.3841465 0.3392859
vt 0.3658535 0.3392859
vt 0.3475609 0.3392859
vt 0.3292682 0.3392859
vt 0.3109756 0.3392859
vt 0.4390244 0.3571429
vt 0.4207318 0.3571429
vt 0.4024391 0.3571429
vt 0.3841465 0.3571429
vt 0.3658535 0.3571429
vt 0.3475609 0.3571429
vt 0.3292682 0.3571429
vt 0.4573171 0.3571429
vt 0.4756098 0.3571429
vt 0.4939024 0.3571429
vt 0.5121951 0.3571429
vt 0.5304878 0.3571429
vt 0.5487804 0.3571429
vt 0.5670731 0.3571429
vt 0.5853658 0.3571429
vt 0.4756098 0.375
vt 0.4939024 0.375
vt 0.5121951 0.375
vt 0.5304878 0.375
vt 0.5487804 0.375
vt 0.5670731 0.375
vt 0.5853658 0.375
vt 0.4573171 0.375
vt 0.4390244 0.375
vt 0.4207318 0.375
vt 0.4024391 0.375
vt 0.3841465 0.375
vt 0.3658535 0.375
vt 0.3475609 0.375
vt 0.4756098 0.3928571
vt 0.4573171 0.3928571
vt 0.4390244 0.3928571
vt 0.4207318 0.3928571
vt 0.4024391 0.3928571
vt 0.3841465 0.3928571
vt 0.3658535 0.3928571
vt 0.4939024 0.3928571
vt 0.5121951 0.3928571
vt 0.5304878 0.3928571
vt 0.5487804 0.3928571
vt 0.5670731 0.3928571
vt 0.5853658 0.3928571
vt 0.4939024 0.4107141
vt 0.5121951 0.4107141
vt 0.5304878 0.4107141
vt 0.5487804 0.4107141
vt 0.5670731 0.4107141
vt 0.5853658 0.4107141
vt 0.4756098 0.4107141
vt 0.4573171 0.4107141
vt 0.4390244 0.4107141
vt 0.4207318 0.4107141
vt 0.4024391 0.4107141
vt 0.3841465 0.4107141
vt 0.4939024 0.4285715
vt 0.4756098 0.4285715
vt 0.4573171 0.4285715
vt 0.4390244 0.4285715
vt 0.4207318 0.4285715
vt 0.4024391 0.4285715
vt 0.5121951 0.4285715
vt 0.5304878 0.4285715
vt 0.5487804 0.4285715
vt 0.5670731 0.4285715
vt 0.5853658 0.4285715
vt 0.5121951 0.4464285
vt 0.5304878 0.4464285
vt 0.5487804 0.4464285
vt 0.5670731 0.4464285
vt 0.5853658 0.4464285
vt 0.4939024 0.4464285
vt 0.4756098 0.4464285
vt 0.4573171 0.4464285
vt 0.4390244 0.4464285
vt 0.4207318 0.4464285
vt 0.5121951 0.4642859
vt 0.4939024 0.4642859
vt 0.4756098 0.4642859
vt 0.4573171 0.4642859
vt 0.4390244 0.4642859
vt 0.5304878 0.4642859
vt 0.5487804 0.4642859
vt 0.5670731 0.4642859
vt 0.5853658 0.4642859
vt 0.4756098 0.4821429
vt 0.4573171 0.4821429
vt 0.4939024 0.4821429
vt 0.5121951 0.4821429
vt 0.5304878 0.4821429
vt 0.5487804 0.4821429
vt 0.5670731 0.4821429
vt 0.5853658 0.4821429
vt 0.4939024 0.5
vt 0.5121951 0.5
vt 0.5304878 0.5
vt 0.5487804 0.5
vt 0.5670731 0.5
vt 0.5853658 0.5
vt 0.4756098 0.5
vt 0.4573171 0.5
vt 0.4390244 0.4821429
vt 0.4207318 0.4642859
vt 0.4024391 0.4464285
vt 0.3841465 0.4285715
vt 0.3658535 0.4107141
vt 0.3475609 0.3928571
vt 0.3292682 0.375
vt 0.3109756 0.3571429
vt 0.2926829 0.3392859
vt 0.2743902 0.3214285
vt 0.2560976 0.3035715
vt 0.3658535 0.4285715
vt 0.3475609 0.4107141
vt 0.3292682 0.3928571
vt 0.3109756 0.375
vt 0.2926829 0.3571429
vt 0.2743902 0.3392859
vt 0.2560976 0.3214285
vt 0.3841465 0.4464285
vt 0.4024391 0.4642859
vt 0.4207318 0.4821429
vt 0.4390244 0.5
vt 0.3658535 0.4464285
vt 0.3841465 0.4642859
vt 0.4024391 0.4821429
vt 0.4207318 0.5
vt 0.3475609 0.4285715
vt 0.3292682 0.4107141
vt 0.3109756 0.3928571
vt 0.2926829 0.375
vt 0.2743902 0.3571429
vt 0.2560976 0.3392859
vt 0.3475609 0.4464285
vt 0.3292682 0.4285715
vt 0.3109756 0.4107141
vt 0.2926829 0.3928571
vt 0.2743902 0.375
vt 0.2560976 0.3571429
vt 0.3658535 0.4642859
vt 0.3841465 0.4821429
vt 0.4024391 0.5
vt 0.2743902 0.3928571
vt 0.2560976 0.375
vt 0.2926829 0.4107141
vt 0.3109756 0.4285715
vt 0.3292682 0.4464285
vt 0.3475609 0.4642859
vt 0.3658535 0.4821429
vt 0.3841465 0.5
vt 0.2743902 0.4107141
vt 0.2926829 0.4285715
vt 0.3109756 0.4464285
vt 0.3292682 0.4642859
vt 0.3475609 0.4821429
vt 0.3658535 0.5
vt 0.2560976 0.3928571
vt 0.2743902 0.4285715
vt 0.2926829 0.4464285
vt 0.3109756 0.4642859
vt 0.3292682 0.4821429
vt 0.3475609 0.5
vt 0.2560976 0.4107141
vt 0.2378049 0.375
vt 0.2378049 0.3928571
vt 0.2378049 0.3571429
vt 0.2378049 0.3392859
vt 0.2378049 0.3214285
vt 0.2378049 0.3035715
vt 0.2378049 0.2857141
vt 0.2378049 0.2678571
vt 0.2560976 0.2678571
vt 0.2378049 0.25
vt 0.2560976 0.25
vt 0.2378049 0.2321429
vt 0.2560976 0.2321429
vt 0.2378049 0.2142857
vt 0.2560976 0.2142857
vt 0.2378049 0.1964287
vt 0.2560976 0.1964287
vt 0.2378049 0.1785713
vt 0.2560976 0.1785713
vt 0.2378049 0.1607143
vt 0.2560976 0.1607143
vt 0.2378049 0.1428571
vt 0.2560976 0.1428571
vt 0.2378049 0.125
vt 0.2560976 0.125
vt 0.2378049 0.1071429
vt 0.2560976 0.1071429
vt 0.2378049 0.08928573
vt 0.2560976 0.08928573
vt 0.2378049 0.07142854
vt 0.2560976 0.07142854
vt 0.2378049 0.05357146
vt 0.2560976 0.05357146
vt 0.2378049 0.03571427
vt 0.2560976 0.03571427
vt 0.2378049 0.01785707
vt 0.2560976 0.01785707
vt 0.2378049 0
vt 0.2560976 0
vt 0.2195122 0
vt 0.2195122 0.01785707
vt 0.2012196 0
vt 0.2195122 0.03571427
vt 0.2012196 0.01785707
vt 0.1829269 0
vt 0.2195122 0.05357146
vt 0.1829269 0.01785707
vt 0.1646342 0
vt 0.2012196 0.03571427
vt 0.2195122 0.07142854
vt 0.1646342 0.01785707
vt 0.1463416 0
vt 0.1829269 0.03571427
vt 0.2012196 0.05357146
vt 0.2195122 0.08928573
vt 0.1463416 0.01785707
vt 0.1280487 0
vt 0.2012196 0.07142854
vt 0.1646342 0.03571427
vt 0.1829269 0.05357146
vt 0.2195122 0.1071429
vt 0.1280487 0.01785707
vt 0.109756 0
vt 0.2012196 0.08928573
vt 0.1829269 0.07142854
vt 0.1463416 0.03571427
vt 0.1646342 0.05357146
vt 0.2195122 0.125
vt 0.109756 0.01785707
vt 0.09146357 0
vt 0.2012196 0.1071429
vt 0.1829269 0.08928573
vt 0.1646342 0.07142854
vt 0.1280487 0.03571427
vt 0.1463416 0.05357146
vt 0.09146357 0.01785707
vt 0.07317066 0
vt 0.109756 0.03571427
vt 0.1280487 0.05357146
vt 0.1463416 0.07142854
vt 0.1646342 0.08928573
vt 0.07317066 0.01785707
vt 0.054878 0
vt 0.09146357 0.03571427
vt 0.109756 0.05357146
vt 0.1280487 0.07142854
vt 0.054878 0.01785707
vt 0.03658533 0
vt 0.07317066 0.03571427
vt 0.09146357 0.05357146
vt 0.03658533 0.01785707
vt 0.01829267 0
vt 0.054878 0.03571427
vt 0.01829267 0.01785707
vt 0 0
vt 0 0.01785707
vt 0.03658533 0.03571427
vt 0.01829267 0.03571427
vt 0 0.03571427
vt 0.07317066 0.05357146
vt 0.109756 0.07142854
vt 0.054878 0.05357146
vt 0.03658533 0.05357146
vt 0.01829267 0.05357146
vt 0 0.05357146
vt 0.09146357 0.07142854
vt 0.07317066 0.07142854
vt 0.054878 0.07142854
vt 0.03658533 0.07142854
vt 0.01829267 0.07142854
vt 0 0.07142854
vt 0.01829267 0.08928573
vt 0 0.08928573
vt 0.03658533 0.08928573
vt 0.054878 0.08928573
vt 0.07317066 0.08928573
vt 0.09146357 0.08928573
vt 0.01829267 0.1071429
vt 0 0.1071429
vt 0.03658533 0.1071429
vt 0.054878 0.1071429
vt 0.07317066 0.1071429
vt 0.01829267 0.125
vt 0 0.125
vt 0.03658533 0.125
vt 0.054878 0.125
vt 0.01829267 0.1428571
vt 0 0.1428571
vt 0.03658533 0.1428571
vt 0.01829267 0.1607143
vt 0 0.1607143
vt 0.09146357 0.1071429
vt 0.07317066 0.125
vt 0.054878 0.1428571
vt 0.03658533 0.1607143
vt 0.01829267 0.1785713
vt 0 0.1785713
vt 0.09146357 0.125
vt 0.07317066 0.1428571
vt 0.054878 0.1607143
vt 0.03658533 0.1785713
vt 0.01829267 0.1964287
vt 0 0.1964287
vt 0.09146357 0.1428571
vt 0.07317066 0.1607143
vt 0.054878 0.1785713
vt 0.03658533 0.1964287
vt 0.01829267 0.2142857
vt 0 0.2142857
vt 0.09146357 0.1607143
vt 0.07317066 0.1785713
vt 0.054878 0.1964287
vt 0.03658533 0.2142857
vt 0.01829267 0.2321429
vt 0 0.2321429
vt 0.09146357 0.1785713
vt 0.07317066 0.1964287
vt 0.054878 0.2142857
vt 0.03658533 0.2321429
vt 0.01829267 0.25
vt 0 0.25
vt 0.09146357 0.1964287
vt 0.07317066 0.2142857
vt 0.054878 0.2321429
vt 0.03658533 0.25
vt 0.01829267 0.2678571
vt 0 0.2678571
vt 0.09146357 0.2142857
vt 0.07317066 0.2321429
vt 0.054878 0.25
vt 0.03658533 0.2678571
vt 0.01829267 0.2857141
vt 0 0.2857141
vt 0.09146357 0.2321429
vt 0.07317066 0.25
vt 0.054878 0.2678571
vt 0.03658533 0.2857141
vt 0.01829267 0.3035715
vt 0 0.3035715
vt 0.09146357 0.25
vt 0.07317066 0.2678571
vt 0.054878 0.2857141
vt 0.03658533 0.3035715
vt 0.01829267 0.3214285
vt 0 0.3214285
vt 0.09146357 0.2678571
vt 0.07317066 0.2857141
vt 0.054878 0.3035715
vt 0.03658533 0.3214285
vt 0.01829267 0.3392859
vt 0 0.3392859
vt 0.09146357 0.2857141
vt 0.07317066 0.3035715
vt 0.054878 0.3214285
vt 0.03658533 0.3392859
vt 0.01829267 0.3571429
vt 0 0.3571429
vt 0.09146357 0.3035715
vt 0.07317066 0.3214285
vt 0.054878 0.3392859
vt 0.03658533 0.3571429
vt 0.01829267 0.375
vt 0 0.375
vt 0.09146357 0.3214285
vt 0.07317066 0.3392859
vt 0.054878 0.3571429
vt 0.03658533 0.375
vt 0.01829267 0.3928571
vt 0 0.3928571
vt 0.09146357 0.3392859
vt 0.07317066 0.3571429
vt 0.054878 0.375
vt 0.03658533 0.3928571
vt 0.01829267 0.4107141
vt 0 0.4107141
vt 0.09146357 0.3571429
vt 0.07317066 0.375
vt 0.054878 0.3928571
vt 0.03658533 0.4107141
vt 0.01829267 0.4285715
vt 0 0.4285715
vt 0.09146357 0.375
vt 0.07317066 0.3928571
vt 0.054878 0.4107141
vt 0.03658533 0.4285715
vt 0.01829267 0.4464285
vt 0 0.4464285
vt 0.09146357 0.3928571
vt 0.07317066 0.4107141
vt 0.054878 0.4285715
vt 0.03658533 0.4464285
vt 0.01829267 0.4642859
vt 0 0.4642859
vt 0.09146357 0.4107141
vt 0.07317066 0.4285715
vt 0.054878 0.4464285
vt 0.03658533 0.4642859
vt 0.01829267 0.4821429
vt 0 0.4821429
vt 0.09146357 0.4285715
vt 0.07317066 0.4464285
vt 0.054878 0.4642859
vt 0.03658533 0.4821429
vt 0.01829267 0.5
vt 0 0.5
vt 0.09146357 0.4464285
vt 0.07317066 0.4642859
vt 0.054878 0.4821429
vt 0.03658533 0.5
vt 0.09146357 0.4642859
vt 0.07317066 0.4821429
vt 0.054878 0.5
vt 0.09146357 0.4821429
vt 0.07317066 0.5
vt 0.09146357 0.5
vt 0.75 0.5
vt 0.7317073 0.4821429
vt 0.7317073 0.5
vt 0.75 0.4821429
vt 0.7134147 0.4821429
vt 0.7134147 0.5
vt 0.7317073 0.4642859
vt 0.75 0.4642859
vt 0.695122 0.4821429
vt 0.695122 0.5
vt 0.7134147 0.4642859
vt 0.7317073 0.4464285
vt 0.75 0.4464285
vt 0.6768293 0.4821429
vt 0.6768293 0.5
vt 0.695122 0.4642859
vt 0.7134147 0.4464285
vt 0.7317073 0.4285715
vt 0.75 0.4285715
vt 0.6585364 0.4821429
vt 0.6585364 0.5
vt 0.6768293 0.4642859
vt 0.695122 0.4464285
vt 0.7134147 0.4285715
vt 0.7317073 0.4107141
vt 0.75 0.4107141
vt 0.6585364 0.4642859
vt 0.6768293 0.4464285
vt 0.695122 0.4285715
vt 0.7134147 0.4107141
vt 0.7317073 0.3928571
vt 0.75 0.3928571
vt 0.6585364 0.4464285
vt 0.6768293 0.4285715
vt 0.695122 0.4107141
vt 0.7134147 0.3928571
vt 0.7317073 0.375
vt 0.75 0.375
vt 0.6585364 0.4285715
vt 0.6768293 0.4107141
vt 0.695122 0.3928571
vt 0.7134147 0.375
vt 0.7317073 0.3571429
vt 0.75 0.3571429
vt 0.6585364 0.4107141
vt 0.6768293 0.3928571
vt 0.695122 0.375
vt 0.7134147 0.3571429
vt 0.7317073 0.3392859
vt 0.75 0.3392859
vt 0.6585364 0.3928571
vt 0.6768293 0.375
vt 0.695122 0.3571429
vt 0.7134147 0.3392859
vt 0.7317073 0.3214285
vt 0.75 0.3214285
vt 0.6585364 0.375
vt 0.6768293 0.3571429
vt 0.695122 0.3392859
vt 0.7134147 0.3214285
vt 0.7317073 0.3035715
vt 0.75 0.3035715
vt 0.6585364 0.3571429
vt 0.6768293 0.3392859
vt 0.695122 0.3214285
vt 0.7134147 0.3035715
vt 0.7317073 0.2857141
vt 0.75 0.2857141
vt 0.6585364 0.3392859
vt 0.6768293 0.3214285
vt 0.695122 0.3035715
vt 0.7134147 0.2857141
vt 0.7317073 0.2678571
vt 0.75 0.2678571
vt 0.6585364 0.3214285
vt 0.6768293 0.3035715
vt 0.695122 0.2857141
vt 0.7134147 0.2678571
vt 0.7317073 0.25
vt 0.75 0.25
vt 0.6585364 0.3035715
vt 0.6768293 0.2857141
vt 0.695122 0.2678571
vt 0.7134147 0.25
vt 0.7317073 0.2321429
vt 0.75 0.2321429
vt 0.6585364 0.2857141
vt 0.6768293 0.2678571
vt 0.695122 0.25
vt 0.7134147 0.2321429
vt 0.7317073 0.2142857
vt 0.75 0.2142857
vt 0.6585364 0.2678571
vt 0.6768293 0.25
vt 0.695122 0.2321429
vt 0.7134147 0.2142857
vt 0.7317073 0.1964287
vt 0.75 0.1964287
vt 0.6585364 0.25
vt 0.6768293 0.2321429
vt 0.695122 0.2142857
vt 0.7134147 0.1964287
vt 0.7317073 0.1785713
vt 0.75 0.1785713
vt 0.6585364 0.2321429
vt 0.6768293 0.2142857
vt 0.695122 0.1964287
vt 0.7134147 0.1785713
vt 0.7317073 0.1607143
vt 0.75 0.1607143
vt 0.6585364 0.2142857
vt 0.6768293 0.1964287
vt 0.695122 0.1785713
vt 0.7134147 0.1607143
vt 0.7317073 0.1428571
vt 0.7134147 0.1428571
vt 0.7134147 0.125
vt 0.695122 0.1607143
vt 0.6768293 0.1785713
vt 0.695122 0.1428571
vt 0.695122 0.1071429
vt 0.695122 0.125
vt 0.6768293 0.1071429
vt 0.6768293 0.1607143
vt 0.6768293 0.125
vt 0.6768293 0.1428571
vt 0.6585364 0.1071429
vt 0.6585364 0.125
vt 0.6585364 0.1428571
vt 0.6585364 0.1607143
vt 0.640244 0.08928573
vt 0.640244 0.1071429
vt 0.6219511 0.08928573
vt 0.640244 0.125
vt 0.6036584 0.08928573
vt 0.6219511 0.1071429
vt 0.6036584 0.1071429
vt 0.640244 0.1428571
vt 0.6219511 0.125
vt 0.6036584 0.125
vt 0.6219511 0.1428571
vt 0.6036584 0.1428571
vt 0.640244 0.1607143
vt 0.6219511 0.1607143
vt 0.6036584 0.1607143
vt 0.6585364 0.1785713
vt 0.640244 0.1785713
vt 0.6585364 0.1964287
vt 0.6219511 0.1785713
vt 0.6036584 0.1785713
vt 0.640244 0.1964287
vt 0.6219511 0.1964287
vt 0.6036584 0.1964287
vt 0.640244 0.2142857
vt 0.6219511 0.2142857
vt 0.6036584 0.2142857
vt 0.640244 0.2321429
vt 0.6219511 0.2321429
vt 0.6036584 0.2321429
vt 0.640244 0.25
vt 0.6219511 0.25
vt 0.6036584 0.25
vt 0.640244 0.2678571
vt 0.6219511 0.2678571
vt 0.6036584 0.2678571
vt 0.640244 0.2857141
vt 0.6219511 0.2857141
vt 0.6036584 0.2857141
vt 0.640244 0.3035715
vt 0.6219511 0.3035715
vt 0.6036584 0.3035715
vt 0.640244 0.3214285
vt 0.6219511 0.3214285
vt 0.6036584 0.3214285
vt 0.640244 0.3392859
vt 0.6219511 0.3392859
vt 0.6036584 0.3392859
vt 0.640244 0.3571429
vt 0.6219511 0.3571429
vt 0.6036584 0.3571429
vt 0.640244 0.375
vt 0.6219511 0.375
vt 0.6036584 0.375
vt 0.640244 0.3928571
vt 0.6219511 0.3928571
vt 0.6036584 0.3928571
vt 0.640244 0.4107141
vt 0.6219511 0.4107141
vt 0.6036584 0.4107141
vt 0.640244 0.4285715
vt 0.6219511 0.4285715
vt 0.6036584 0.4285715
vt 0.640244 0.4464285
vt 0.6219511 0.4464285
vt 0.6036584 0.4464285
vt 0.640244 0.4642859
vt 0.6219511 0.4642859
vt 0.6036584 0.4642859
vt 0.640244 0.4821429
vt 0.6219511 0.4821429
vt 0.6036584 0.4821429
vt 0.640244 0.5
vt 0.6219511 0.5
vt 0.6036584 0.5
vt 0.3292682 0.5
vt 0.3109756 0.4821429
vt 0.2926829 0.4642859
vt 0.2743902 0.4464285
vt 0.2560976 0.4285715
vt 0.2378049 0.4107141
vt 0.3109756 0.5
vt 0.2926829 0.4821429
vt 0.2743902 0.4642859
vt 0.2560976 0.4464285
vt 0.2378049 0.4285715
vt 0.2560976 0.4642859
vt 0.2378049 0.4464285
vt 0.2743902 0.4821429
vt 0.2926829 0.5
vt 0.2743902 0.5
vt 0.2560976 0.4821429
vt 0.2378049 0.4642859
vt 0.2560976 0.5
vt 0.2378049 0.4821429
vt 0.2378049 0.5
vt 0.109756 0.5
vt 0.109756 0.4821429
vt 0.1280487 0.5
vt 0.109756 0.4642859
vt 0.1280487 0.4821429
vt 0.109756 0.4464285
vt 0.1463416 0.5
vt 0.1280487 0.4642859
vt 0.109756 0.4285715
vt 0.1463416 0.4821429
vt 0.1280487 0.4464285
vt 0.109756 0.4107141
vt 0.1646342 0.5
vt 0.1463416 0.4642859
vt 0.1280487 0.4285715
vt 0.109756 0.3928571
vt 0.1646342 0.4821429
vt 0.1463416 0.4464285
vt 0.1280487 0.4107141
vt 0.109756 0.375
vt 0.1829269 0.5
vt 0.1646342 0.4642859
vt 0.1463416 0.4285715
vt 0.1280487 0.3928571
vt 0.109756 0.3571429
vt 0.1829269 0.4821429
vt 0.1646342 0.4464285
vt 0.1463416 0.4107141
vt 0.1280487 0.375
vt 0.109756 0.3392859
vt 0.1829269 0.4642859
vt 0.1646342 0.4285715
vt 0.1463416 0.3928571
vt 0.1280487 0.3571429
vt 0.109756 0.3214285
vt 0.1829269 0.4464285
vt 0.1646342 0.4107141
vt 0.1463416 0.375
vt 0.1280487 0.3392859
vt 0.109756 0.3035715
vt 0.1829269 0.4285715
vt 0.1646342 0.3928571
vt 0.1463416 0.3571429
vt 0.1280487 0.3214285
vt 0.109756 0.2857141
vt 0.1829269 0.4107141
vt 0.1646342 0.375
vt 0.1463416 0.3392859
vt 0.1280487 0.3035715
vt 0.109756 0.2678571
vt 0.1829269 0.3928571
vt 0.1646342 0.3571429
vt 0.1463416 0.3214285
vt 0.1280487 0.2857141
vt 0.109756 0.25
vt 0.1829269 0.375
vt 0.1646342 0.3392859
vt 0.1463416 0.3035715
vt 0.1280487 0.2678571
vt 0.109756 0.2321429
vt 0.1829269 0.3571429
vt 0.1646342 0.3214285
vt 0.1463416 0.2857141
vt 0.1280487 0.25
vt 0.109756 0.2142857
vt 0.1829269 0.3392859
vt 0.1646342 0.3035715
vt 0.1463416 0.2678571
vt 0.1280487 0.2321429
vt 0.109756 0.1964287
vt 0.1829269 0.3214285
vt 0.1646342 0.2857141
vt 0.1463416 0.25
vt 0.1280487 0.2142857
vt 0.109756 0.1785713
vt 0.1829269 0.3035715
vt 0.1646342 0.2678571
vt 0.1463416 0.2321429
vt 0.1280487 0.1964287
vt 0.109756 0.1607143
vt 0.1829269 0.2857141
vt 0.1646342 0.25
vt 0.1463416 0.2142857
vt 0.1280487 0.1785713
vt 0.109756 0.1428571
vt 0.1829269 0.2678571
vt 0.1646342 0.2321429
vt 0.1463416 0.1964287
vt 0.1280487 0.1607143
vt 0.109756 0.125
vt 0.1829269 0.25
vt 0.1646342 0.2142857
vt 0.1463416 0.1785713
vt 0.1280487 0.1428571
vt 0.109756 0.1071429
vt 0.1829269 0.2321429
vt 0.1646342 0.1964287
vt 0.1463416 0.1607143
vt 0.1280487 0.125
vt 0.109756 0.08928573
vt 0.1280487 0.1071429
vt 0.1280487 0.08928573
vt 0.1463416 0.1428571
vt 0.1646342 0.1785713
vt 0.1463416 0.125
vt 0.1463416 0.08928573
vt 0.1463416 0.1071429
vt 0.1646342 0.1607143
vt 0.1646342 0.1071429
vt 0.1646342 0.125
vt 0.1646342 0.1428571
vt 0.1829269 0.1071429
vt 0.1829269 0.125
vt 0.2012196 0.125
vt 0.1829269 0.1428571
vt 0.1829269 0.1607143
vt 0.2195122 0.1428571
vt 0.2012196 0.1428571
vt 0.2195122 0.1607143
vt 0.2012196 0.1607143
vt 0.2195122 0.1785713
vt 0.1829269 0.1785713
vt 0.2012196 0.1785713
vt 0.2195122 0.1964287
vt 0.1829269 0.1964287
vt 0.2012196 0.1964287
vt 0.2195122 0.2142857
vt 0.1829269 0.2142857
vt 0.2012196 0.2142857
vt 0.2195122 0.2321429
vt 0.2012196 0.2321429
vt 0.2195122 0.25
vt 0.2012196 0.25
vt 0.2195122 0.2678571
vt 0.2012196 0.2678571
vt 0.2195122 0.2857141
vt 0.2012196 0.2857141
vt 0.2195122 0.3035715
vt 0.2012196 0.3035715
vt 0.2195122 0.3214285
vt 0.2012196 0.3214285
vt 0.2195122 0.3392859
vt 0.2012196 0.3392859
vt 0.2195122 0.3571429
vt 0.2012196 0.3571429
vt 0.2195122 0.375
vt 0.2012196 0.375
vt 0.2195122 0.3928571
vt 0.2012196 0.3928571
vt 0.2195122 0.4107141
vt 0.2012196 0.4107141
vt 0.2195122 0.4285715
vt 0.2012196 0.4285715
vt 0.2195122 0.4464285
vt 0.2012196 0.4464285
vt 0.2195122 0.4642859
vt 0.2012196 0.4642859
vt 0.2195122 0.4821429
vt 0.2012196 0.4821429
vt 0.2195122 0.5
vt 0.2012196 0.5

vn 0 0 1

usemtl Default-Material
f 4/4/1 3/3/1 2/2/1 1/1/1
f 7/7/1 4/4/1 1/1/1 5/5/1
f 9/9/1 6/6/1 3/3/1 4/4/1
f 11/11/1 7/7/1 5/5/1 8/8/1
f 15/15/1 9/9/1 4/4/1 7/7/1
f 13/13/1 10/10/1 6/6/1 9/9/1
f 16/16/1 11/11/1 8/8/1 12/12/1
f 18/18/1 14/14/1 10/10/1 13/13/1
f 21/21/1 15/15/1 7/7/1 11/11/1
f 20/20/1 13/13/1 9/9/1 15/15/1
f 22/22/1 16/16/1 12/12/1 17/17/1
f 24/24/1 19/19/1 14/14/1 18/18/1
f 27/27/1 18/18/1 13/13/1 20/20/1
f 26/26/1 21/21/1 11/11/1 16/16/1
f 28/28/1 20/20/1 15/15/1 21/21/1
f 29/29/1 22/22/1 17/17/1 23/23/1
f 31/31/1 25/25/1 19/19/1 24/24/1
f 33/33/1 26/26/1 16/16/1 22/22/1
f 35/35/1 24/24/1 18/18/1 27/27/1
f 34/34/1 28/28/1 21/21/1 26/26/1
f 36/36/1 27/27/1 20/20/1 28/28/1
f 37/37/1 29/29/1 23/23/1 30/30/1
f 39/39/1 32/32/1 25/25/1 31/31/1
f 41/41/1 33/33/1 22/22/1 29/29/1
f 42/42/1 34/34/1 26/26/1 33/33/1
f 44/44/1 31/31/1 24/24/1 35/35/1
f 43/43/1 36/36/1 28/28/1 34/34/1
f 45/45/1 35/35/1 27/27/1 36/36/1
f 755/755/1 37/37/1 30/30/1 38/38/1
f 46/46/1 40/40/1 32/32/1 39/39/1
f 757/757/1 41/41/1 29/29/1 37/37/1
f 761/761/1 42/42/1 33/33/1 41/41/1
f 51/51/1 43/43/1 34/34/1 42/42/1
f 48/48/1 39/39/1 31/31/1 44/44/1
f 50/50/1 45/45/1 36/36/1 43/43/1
f 49/49/1 44/44/1 35/35/1 45/45/1
f 52/52/1 47/47/1 40/40/1 46/46/1
f 54/54/1 46/46/1 39/39/1 48/48/1
f 55/55/1 48/48/1 44/44/1 49/49/1
f 56/56/1 49/49/1 45/45/1 50/50/1
f 66/66/1 50/50/1 43/43/1 51/51/1
f 57/57/1 53/53/1 47/47/1 52/52/1
f 59/59/1 52/52/1 46/46/1 54/54/1
f 60/60/1 54/54/1 48/48/1 55/55/1
f 67/67/1 55/55/1 49/49/1 56/56/1
f 61/61/1 58/58/1 53/53/1 57/57/1
f 63/63/1 57/57/1 52/52/1 59/59/1
f 68/68/1 59/59/1 54/54/1 60/60/1
f 64/64/1 62/62/1 58/58/1 61/61/1
f 69/69/1 61/61/1 57/57/1 63/63/1
f 70/70/1 65/65/1 62/62/1 64/64/1
f 771/771/1 56/56/1 50/50/1 66/66/1
f 77/77/1 60/60/1 55/55/1 67/67/1
f 76/76/1 63/63/1 59/59/1 68/68/1
f 73/73/1 64/64/1 61/61/1 69/69/1
f 72/72/1 71/71/1 65/65/1 70/70/1
f 74/74/1 70/70/1 64/64/1 73/73/1
f 75/75/1 72/72/1 70/70/1 74/74/1
f 78/78/1 69/69/1 63/63/1 76/76/1
f 82/82/1 68/68/1 60/60/1 77/77/1
f 79/79/1 73/73/1 69/69/1 78/78/1
f 80/80/1 74/74/1 73/73/1 79/79/1
f 81/81/1 75/75/1 74/74/1 80/80/1
f 83/83/1 76/76/1 68/68/1 82/82/1
f 84/84/1 78/78/1 76/76/1 83/83/1
f 85/85/1 79/79/1 78/78/1 84/84/1
f 86/86/1 80/80/1 79/79/1 85/85/1
f 87/87/1 81/81/1 80/80/1 86/86/1
f 89/89/1 87/87/1 86/86/1 88/88/1
f 88/88/1 86/86/1 85/85/1 90/90/1
f 90/90/1 85/85/1 84/84/1 91/91/1
f 91/91/1 84/84/1 83/83/1 92/92/1
f 92/92/1 83/83/1 82/82/1 93/93/1
f 95/95/1 89/89/1 88/88/1 94/94/1
f 94/94/1 88/88/1 90/90/1 96/96/1
f 96/96/1 90/90/1 91/91/1 97/97/1
f 97/97/1 91/91/1 92/92/1 98/98/1
f 100/100/1 95/95/1 94/94/1 99/99/1
f 99/99/1 94/94/1 96/96/1 101/101/1
f 101/101/1 96/96/1 97/97/1 102/102/1
f 104/104/1 100/100/1 99/99/1 103/103/1
f 103/103/1 99/99/1 101/101/1 105/105/1
f 107/107/1 104/104/1 103/103/1 106/106/1
f 93/93/1 108/108/1 98/98/1 92/92/1
f 102/102/1 97/97/1 98/98/1 109/109/1
f 105/105/1 101/101/1 102/102/1 110/110/1
f 106/106/1 103/103/1 105/105/1 111/111/1
f 113/113/1 107/107/1 106/106/1 112/112/1
f 109/109/1 98/98/1 108/108/1 114/114/1
f 110/110/1 102/102/1 109/109/1 115/115/1
f 111/111/1 105/105/1 110/110/1 116/116/1
f 112/112/1 106/106/1 111/111/1 117/117/1
f 119/119/1 113/113/1 112/112/1 118/118/1
f 115/115/1 109/109/1 114/114/1 120/120/1
f 116/116/1 110/110/1 115/115/1 121/121/1
f 117/117/1 111/111/1 116/116/1 122/122/1
f 118/118/1 112/112/1 117/117/1 123/123/1
f 125/125/1 119/119/1 118/118/1 124/124/1
f 121/121/1 115/115/1 120/120/1 126/126/1
f 122/122/1 116/116/1 121/121/1 127/127/1
f 123/123/1 117/117/1 122/122/1 128/128/1
f 124/124/1 118/118/1 123/123/1 129/129/1
f 131/131/1 125/125/1 124/124/1 130/130/1
f 127/127/1 121/121/1 126/126/1 132/132/1
f 128/128/1 122/122/1 127/127/1 133/133/1
f 129/129/1 123/123/1 128/128/1 134/134/1
f 130/130/1 124/124/1 129/129/1 135/135/1
f 137/137/1 131/131/1 130/130/1 136/136/1
f 133/133/1 127/127/1 132/132/1 138/138/1
f 134/134/1 128/128/1 133/133/1 139/139/1
f 135/135/1 129/129/1 134/134/1 140/140/1
f 136/136/1 130/130/1 135/135/1 141/141/1
f 143/143/1 137/137/1 136/136/1 142/142/1
f 139/139/1 133/133/1 138/138/1 144/144/1
f 140/140/1 134/134/1 139/139/1 145/145/1
f 141/141/1 135/135/1 140/140/1 146/146/1
f 142/142/1 136/136/1 141/141/1 147/147/1
f 149/149/1 143/143/1 142/142/1 148/148/1
f 145/145/1 139/139/1 144/144/1 150/150/1
f 146/146/1 140/140/1 145/145/1 151/151/1
f 147/147/1 141/141/1 146/146/1 152/152/1
f 148/148/1 142/142/1 147/147/1 153/153/1
f 151/151/1 145/145/1 150/150/1 154/154/1
f 152/152/1 146/146/1 151/151/1 155/155/1
f 153/153/1 147/147/1 152/152/1 156/156/1
f 155/155/1 151/151/1 154/154/1 157/157/1
f 156/156/1 152/152/1 155/155/1 158/158/1
f 158/158/1 155/155/1 157/157/1 159/159/1
f 164/164/1 148/148/1 153/153/1 160/160/1
f 160/160/1 153/153/1 156/156/1 161/161/1
f 161/161/1 156/156/1 158/158/1 162/162/1
f 162/162/1 158/158/1 159/159/1 163/163/1
f 165/165/1 149/149/1 148/148/1 164/164/1
f 167/167/1 166/166/1 149/149/1 165/165/1
f 169/169/1 168/168/1 166/166/1 167/167/1
f 171/171/1 170/170/1 168/168/1 169/169/1
f 173/173/1 172/172/1 170/170/1 171/171/1
f 175/175/1 174/174/1 172/172/1 173/173/1
f 177/177/1 176/176/1 174/174/1 175/175/1
f 179/179/1 178/178/1 176/176/1 177/177/1
f 181/181/1 180/180/1 178/178/1 179/179/1
f 183/183/1 182/182/1 180/180/1 181/181/1
f 185/185/1 184/184/1 182/182/1 183/183/1
f 187/187/1 186/186/1 184/184/1 185/185/1
f 189/189/1 188/188/1 186/186/1 187/187/1
f 334/334/1 190/190/1 188/188/1 189/189/1
f 192/192/1 177/177/1 175/175/1 191/191/1
f 193/193/1 179/179/1 177/177/1 192/192/1
f 194/194/1 181/181/1 179/179/1 193/193/1
f 195/195/1 183/183/1 181/181/1 194/194/1
f 196/196/1 185/185/1 183/183/1 195/195/1
f 197/197/1 187/187/1 185/185/1 196/196/1
f 333/333/1 189/189/1 187/187/1 197/197/1
f 173/173/1 198/198/1 191/191/1 175/175/1
f 171/171/1 199/199/1 198/198/1 173/173/1
f 169/169/1 200/200/1 199/199/1 171/171/1
f 167/167/1 201/201/1 200/200/1 169/169/1
f 165/165/1 202/202/1 201/201/1 167/167/1
f 164/164/1 203/203/1 202/202/1 165/165/1
f 160/160/1 204/204/1 203/203/1 164/164/1
f 161/161/1 205/205/1 204/204/1 160/160/1
f 162/162/1 206/206/1 205/205/1 161/161/1
f 163/163/1 207/207/1 206/206/1 162/162/1
f 215/215/1 200/200/1 201/201/1 208/208/1
f 208/208/1 201/201/1 202/202/1 209/209/1
f 209/209/1 202/202/1 203/203/1 210/210/1
f 210/210/1 203/203/1 204/204/1 211/211/1
f 211/211/1 204/204/1 205/205/1 212/212/1
f 212/212/1 205/205/1 206/206/1 213/213/1
f 213/213/1 206/206/1 207/207/1 214/214/1
f 216/216/1 199/199/1 200/200/1 215/215/1
f 217/217/1 198/198/1 199/199/1 216/216/1
f 218/218/1 191/191/1 198/198/1 217/217/1
f 219/219/1 192/192/1 191/191/1 218/218/1
f 220/220/1 193/193/1 192/192/1 219/219/1
f 221/221/1 194/194/1 193/193/1 220/220/1
f 222/222/1 195/195/1 194/194/1 221/221/1
f 223/223/1 196/196/1 195/195/1 222/222/1
f 332/332/1 197/197/1 196/196/1 223/223/1
f 225/225/1 217/217/1 216/216/1 224/224/1
f 226/226/1 218/218/1 217/217/1 225/225/1
f 227/227/1 219/219/1 218/218/1 226/226/1
f 228/228/1 220/220/1 219/219/1 227/227/1
f 229/229/1 221/221/1 220/220/1 228/228/1
f 230/230/1 222/222/1 221/221/1 229/229/1
f 331/331/1 223/223/1 222/222/1 230/230/1
f 215/215/1 231/231/1 224/224/1 216/216/1
f 208/208/1 232/232/1 231/231/1 215/215/1
f 209/209/1 233/233/1 232/232/1 208/208/1
f 210/210/1 234/234/1 233/233/1 209/209/1
f 211/211/1 235/235/1 234/234/1 210/210/1
f 212/212/1 236/236/1 235/235/1 211/211/1
f 213/213/1 237/237/1 236/236/1 212/212/1
f 214/214/1 238/238/1 237/237/1 213/213/1
f 246/246/1 231/231/1 232/232/1 239/239/1
f 239/239/1 232/232/1 233/233/1 240/240/1
f 240/240/1 233/233/1 234/234/1 241/241/1
f 241/241/1 234/234/1 235/235/1 242/242/1
f 242/242/1 235/235/1 236/236/1 243/243/1
f 243/243/1 236/236/1 237/237/1 244/244/1
f 244/244/1 237/237/1 238/238/1 245/245/1
f 247/247/1 224/224/1 231/231/1 246/246/1
f 248/248/1 225/225/1 224/224/1 247/247/1
f 249/249/1 226/226/1 225/225/1 248/248/1
f 250/250/1 227/227/1 226/226/1 249/249/1
f 251/251/1 228/228/1 227/227/1 250/250/1
f 252/252/1 229/229/1 228/228/1 251/251/1
f 330/330/1 230/230/1 229/229/1 252/252/1
f 254/254/1 246/246/1 239/239/1 253/253/1
f 255/255/1 247/247/1 246/246/1 254/254/1
f 256/256/1 248/248/1 247/247/1 255/255/1
f 257/257/1 249/249/1 248/248/1 256/256/1
f 258/258/1 250/250/1 249/249/1 257/257/1
f 259/259/1 251/251/1 250/250/1 258/258/1
f 329/329/1 252/252/1 251/251/1 259/259/1
f 240/240/1 260/260/1 253/253/1 239/239/1
f 241/241/1 261/261/1 260/260/1 240/240/1
f 242/242/1 262/262/1 261/261/1 241/241/1
f 243/243/1 263/263/1 262/262/1 242/242/1
f 244/244/1 264/264/1 263/263/1 243/243/1
f 245/245/1 265/265/1 264/264/1 244/244/1
f 272/272/1 253/253/1 260/260/1 266/266/1
f 266/266/1 260/260/1 261/261/1 267/267/1
f 267/267/1 261/261/1 262/262/1 268/268/1
f 268/268/1 262/262/1 263/263/1 269/269/1
f 269/269/1 263/263/1 264/264/1 270/270/1
f 270/270/1 264/264/1 265/265/1 271/271/1
f 273/273/1 254/254/1 253/253/1 272/272/1
f 274/274/1 255/255/1 254/254/1 273/273/1
f 275/275/1 256/256/1 255/255/1 274/274/1
f 276/276/1 257/257/1 256/256/1 275/275/1
f 277/277/1 258/258/1 257/257/1 276/276/1
f 328/328/1 259/259/1 258/258/1 277/277/1
f 279/279/1 272/272/1 266/266/1 278/278/1
f 280/280/1 273/273/1 272/272/1 279/279/1
f 281/281/1 274/274/1 273/273/1 280/280/1
f 282/282/1 275/275/1 274/274/1 281/281/1
f 283/283/1 276/276/1 275/275/1 282/282/1
f 327/327/1 277/277/1 276/276/1 283/283/1
f 267/267/1 284/284/1 278/278/1 266/266/1
f 268/268/1 285/285/1 284/284/1 267/267/1
f 269/269/1 286/286/1 285/285/1 268/268/1
f 270/270/1 287/287/1 286/286/1 269/269/1
f 271/271/1 288/288/1 287/287/1 270/270/1
f 294/294/1 278/278/1 284/284/1 289/289/1
f 289/289/1 284/284/1 285/285/1 290/290/1
f 290/290/1 285/285/1 286/286/1 291/291/1
f 291/291/1 286/286/1 287/287/1 292/292/1
f 292/292/1 287/287/1 288/288/1 293/293/1
f 295/295/1 279/279/1 278/278/1 294/294/1
f 296/296/1 280/280/1 279/279/1 295/295/1
f 297/297/1 281/281/1 280/280/1 296/296/1
f 298/298/1 282/282/1 281/281/1 297/297/1
f 326/326/1 283/283/1 282/282/1 298/298/1
f 300/300/1 294/294/1 289/289/1 299/299/1
f 301/301/1 295/295/1 294/294/1 300/300/1
f 302/302/1 296/296/1 295/295/1 301/301/1
f 303/303/1 297/297/1 296/296/1 302/302/1
f 325/325/1 298/298/1 297/297/1 303/303/1
f 290/290/1 304/304/1 299/299/1 289/289/1
f 291/291/1 305/305/1 304/304/1 290/290/1
f 292/292/1 306/306/1 305/305/1 291/291/1
f 293/293/1 307/307/1 306/306/1 292/292/1
f 309/309/1 302/302/1 301/301/1 308/308/1
f 324/324/1 303/303/1 302/302/1 309/309/1
f 300/300/1 310/310/1 308/308/1 301/301/1
f 299/299/1 311/311/1 310/310/1 300/300/1
f 304/304/1 312/312/1 311/311/1 299/299/1
f 305/305/1 313/313/1 312/312/1 304/304/1
f 306/306/1 314/314/1 313/313/1 305/305/1
f 307/307/1 315/315/1 314/314/1 306/306/1
f 322/322/1 308/308/1 310/310/1 316/316/1
f 316/316/1 310/310/1 311/311/1 317/317/1
f 317/317/1 311/311/1 312/312/1 318/318/1
f 318/318/1 312/312/1 313/313/1 319/319/1
f 319/319/1 313/313/1 314/314/1 320/320/1
f 320/320/1 314/314/1 315/315/1 321/321/1
f 323/323/1 309/309/1 308/308/1 322/322/1
f 345/345/1 324/324/1 309/309/1 323/323/1
f 344/344/1 325/325/1 303/303/1 324/324/1
f 343/343/1 326/326/1 298/298/1 325/325/1
f 342/342/1 327/327/1 283/283/1 326/326/1
f 335/335/1 328/328/1 277/277/1 327/327/1
f 336/336/1 329/329/1 259/259/1 328/328/1
f 337/337/1 330/330/1 252/252/1 329/329/1
f 338/338/1 331/331/1 230/230/1 330/330/1
f 339/339/1 332/332/1 223/223/1 331/331/1
f 340/340/1 333/333/1 197/197/1 332/332/1
f 341/341/1 334/334/1 189/189/1 333/333/1
f 350/350/1 336/336/1 328/328/1 335/335/1
f 351/351/1 337/337/1 329/329/1 336/336/1
f 352/352/1 338/338/1 330/330/1 337/337/1
f 353/353/1 339/339/1 331/331/1 338/338/1
f 354/354/1 340/340/1 332/332/1 339/339/1
f 355/355/1 341/341/1 333/333/1 340/340/1
f 346/346/1 335/335/1 327/327/1 342/342/1
f 347/347/1 342/342/1 326/326/1 343/343/1
f 348/348/1 343/343/1 325/325/1 344/344/1
f 349/349/1 344/344/1 324/324/1 345/345/1
f 362/362/1 346/346/1 342/342/1 347/347/1
f 363/363/1 347/347/1 343/343/1 348/348/1
f 364/364/1 348/348/1 344/344/1 349/349/1
f 356/356/1 350/350/1 335/335/1 346/346/1
f 357/357/1 351/351/1 336/336/1 350/350/1
f 358/358/1 352/352/1 337/337/1 351/351/1
f 359/359/1 353/353/1 338/338/1 352/352/1
f 360/360/1 354/354/1 339/339/1 353/353/1
f 361/361/1 355/355/1 340/340/1 354/354/1
f 369/369/1 357/357/1 350/350/1 356/356/1
f 368/368/1 358/358/1 351/351/1 357/357/1
f 367/367/1 359/359/1 352/352/1 358/358/1
f 365/365/1 360/360/1 353/353/1 359/359/1
f 366/366/1 361/361/1 354/354/1 360/360/1
f 370/370/1 356/356/1 346/346/1 362/362/1
f 371/371/1 362/362/1 347/347/1 363/363/1
f 372/372/1 363/363/1 348/348/1 364/364/1
f 379/379/1 366/366/1 360/360/1 365/365/1
f 373/373/1 365/365/1 359/359/1 367/367/1
f 374/374/1 367/367/1 358/358/1 368/368/1
f 375/375/1 368/368/1 357/357/1 369/369/1
f 376/376/1 369/369/1 356/356/1 370/370/1
f 377/377/1 370/370/1 362/362/1 371/371/1
f 378/378/1 371/371/1 363/363/1 372/372/1
f 380/380/1 373/373/1 367/367/1 374/374/1
f 381/381/1 374/374/1 368/368/1 375/375/1
f 382/382/1 375/375/1 369/369/1 376/376/1
f 383/383/1 376/376/1 370/370/1 377/377/1
f 384/384/1 377/377/1 371/371/1 378/378/1
f 385/385/1 379/379/1 365/365/1 373/373/1
f 848/848/1 380/380/1 374/374/1 381/381/1
f 847/847/1 381/381/1 375/375/1 382/382/1
f 846/846/1 382/382/1 376/376/1 383/383/1
f 845/845/1 383/383/1 377/377/1 384/384/1
f 849/849/1 385/385/1 373/373/1 380/380/1
f 387/387/1 386/386/1 366/366/1 379/379/1
f 850/850/1 387/387/1 379/379/1 385/385/1
f 361/361/1 366/366/1 386/386/1 388/388/1
f 355/355/1 361/361/1 388/388/1 389/389/1
f 341/341/1 355/355/1 389/389/1 390/390/1
f 334/334/1 341/341/1 390/390/1 391/391/1
f 190/190/1 334/334/1 391/391/1 392/392/1
f 394/394/1 190/190/1 392/392/1 393/393/1
f 396/396/1 394/394/1 393/393/1 395/395/1
f 398/398/1 396/396/1 395/395/1 397/397/1
f 400/400/1 398/398/1 397/397/1 399/399/1
f 402/402/1 400/400/1 399/399/1 401/401/1
f 404/404/1 402/402/1 401/401/1 403/403/1
f 406/406/1 404/404/1 403/403/1 405/405/1
f 408/408/1 406/406/1 405/405/1 407/407/1
f 410/410/1 408/408/1 407/407/1 409/409/1
f 412/412/1 410/410/1 409/409/1 411/411/1
f 414/414/1 412/412/1 411/411/1 413/413/1
f 416/416/1 414/414/1 413/413/1 415/415/1
f 418/418/1 416/416/1 415/415/1 417/417/1
f 420/420/1 418/418/1 417/417/1 419/419/1
f 422/422/1 420/420/1 419/419/1 421/421/1
f 424/424/1 422/422/1 421/421/1 423/423/1
f 426/426/1 425/425/1 423/423/1 421/421/1
f 428/428/1 426/426/1 421/421/1 419/419/1
f 429/429/1 427/427/1 425/425/1 426/426/1
f 431/431/1 428/428/1 419/419/1 417/417/1
f 434/434/1 429/429/1 426/426/1 428/428/1
f 432/432/1 430/430/1 427/427/1 429/429/1
f 435/435/1 431/431/1 417/417/1 415/415/1
f 436/436/1 433/433/1 430/430/1 432/432/1
f 439/439/1 434/434/1 428/428/1 431/431/1
f 438/438/1 432/432/1 429/429/1 434/434/1
f 440/440/1 435/435/1 415/415/1 413/413/1
f 441/441/1 437/437/1 433/433/1 436/436/1
f 444/444/1 436/436/1 432/432/1 438/438/1
f 443/443/1 439/439/1 431/431/1 435/435/1
f 445/445/1 438/438/1 434/434/1 439/439/1
f 446/446/1 440/440/1 413/413/1 411/411/1
f 447/447/1 442/442/1 437/437/1 441/441/1
f 449/449/1 443/443/1 435/435/1 440/440/1
f 451/451/1 441/441/1 436/436/1 444/444/1
f 450/450/1 445/445/1 439/439/1 443/443/1
f 452/452/1 444/444/1 438/438/1 445/445/1
f 453/453/1 446/446/1 411/411/1 409/409/1
f 454/454/1 448/448/1 442/442/1 447/447/1
f 456/456/1 449/449/1 440/440/1 446/446/1
f 457/457/1 450/450/1 443/443/1 449/449/1
f 459/459/1 447/447/1 441/441/1 451/451/1
f 458/458/1 452/452/1 445/445/1 450/450/1
f 460/460/1 451/451/1 444/444/1 452/452/1
f 982/982/1 453/453/1 409/409/1 407/407/1
f 461/461/1 455/455/1 448/448/1 454/454/1
f 979/979/1 456/456/1 446/446/1 453/453/1
f 977/977/1 457/457/1 449/449/1 456/456/1
f 466/466/1 458/458/1 450/450/1 457/457/1
f 463/463/1 454/454/1 447/447/1 459/459/1
f 465/465/1 460/460/1 452/452/1 458/458/1
f 464/464/1 459/459/1 451/451/1 460/460/1
f 467/467/1 462/462/1 455/455/1 461/461/1
f 469/469/1 461/461/1 454/454/1 463/463/1
f 470/470/1 463/463/1 459/459/1 464/464/1
f 471/471/1 464/464/1 460/460/1 465/465/1
f 971/971/1 465/465/1 458/458/1 466/466/1
f 472/472/1 468/468/1 462/462/1 467/467/1
f 474/474/1 467/467/1 461/461/1 469/469/1
f 475/475/1 469/469/1 463/463/1 470/470/1
f 486/486/1 470/470/1 464/464/1 471/471/1
f 476/476/1 473/473/1 468/468/1 472/472/1
f 478/478/1 472/472/1 467/467/1 474/474/1
f 485/485/1 474/474/1 469/469/1 475/475/1
f 479/479/1 477/477/1 473/473/1 476/476/1
f 482/482/1 476/476/1 472/472/1 478/478/1
f 481/481/1 480/480/1 477/477/1 479/479/1
f 483/483/1 479/479/1 476/476/1 482/482/1
f 484/484/1 481/481/1 479/479/1 483/483/1
f 487/487/1 478/478/1 474/474/1 485/485/1
f 491/491/1 475/475/1 470/470/1 486/486/1
f 488/488/1 482/482/1 478/478/1 487/487/1
f 489/489/1 483/483/1 482/482/1 488/488/1
f 490/490/1 484/484/1 483/483/1 489/489/1
f 492/492/1 485/485/1 475/475/1 491/491/1
f 493/493/1 487/487/1 485/485/1 492/492/1
f 494/494/1 488/488/1 487/487/1 493/493/1
f 495/495/1 489/489/1 488/488/1 494/494/1
f 496/496/1 490/490/1 489/489/1 495/495/1
f 498/498/1 496/496/1 495/495/1 497/497/1
f 497/497/1 495/495/1 494/494/1 499/499/1
f 499/499/1 494/494/1 493/493/1 500/500/1
f 500/500/1 493/493/1 492/492/1 501/501/1
f 501/501/1 492/492/1 491/491/1 502/502/1
f 504/504/1 498/498/1 497/497/1 503/503/1
f 503/503/1 497/497/1 499/499/1 505/505/1
f 505/505/1 499/499/1 500/500/1 506/506/1
f 506/506/1 500/500/1 501/501/1 507/507/1
f 509/509/1 504/504/1 503/503/1 508/508/1
f 508/508/1 503/503/1 505/505/1 510/510/1
f 510/510/1 505/505/1 506/506/1 511/511/1
f 513/513/1 509/509/1 508/508/1 512/512/1
f 512/512/1 508/508/1 510/510/1 514/514/1
f 516/516/1 513/513/1 512/512/1 515/515/1
f 502/502/1 517/517/1 507/507/1 501/501/1
f 511/511/1 506/506/1 507/507/1 518/518/1
f 514/514/1 510/510/1 511/511/1 519/519/1
f 515/515/1 512/512/1 514/514/1 520/520/1
f 522/522/1 516/516/1 515/515/1 521/521/1
f 518/518/1 507/507/1 517/517/1 523/523/1
f 519/519/1 511/511/1 518/518/1 524/524/1
f 520/520/1 514/514/1 519/519/1 525/525/1
f 521/521/1 515/515/1 520/520/1 526/526/1
f 528/528/1 522/522/1 521/521/1 527/527/1
f 524/524/1 518/518/1 523/523/1 529/529/1
f 525/525/1 519/519/1 524/524/1 530/530/1
f 526/526/1 520/520/1 525/525/1 531/531/1
f 527/527/1 521/521/1 526/526/1 532/532/1
f 534/534/1 528/528/1 527/527/1 533/533/1
f 530/530/1 524/524/1 529/529/1 535/535/1
f 531/531/1 525/525/1 530/530/1 536/536/1
f 532/532/1 526/526/1 531/531/1 537/537/1
f 533/533/1 527/527/1 532/532/1 538/538/1
f 540/540/1 534/534/1 533/533/1 539/539/1
f 536/536/1 530/530/1 535/535/1 541/541/1
f 537/537/1 531/531/1 536/536/1 542/542/1
f 538/538/1 532/532/1 537/537/1 543/543/1
f 539/539/1 533/533/1 538/538/1 544/544/1
f 546/546/1 540/540/1 539/539/1 545/545/1
f 542/542/1 536/536/1 541/541/1 547/547/1
f 543/543/1 537/537/1 542/542/1 548/548/1
f 544/544/1 538/538/1 543/543/1 549/549/1
f 545/545/1 539/539/1 544/544/1 550/550/1
f 552/552/1 546/546/1 545/545/1 551/551/1
f 548/548/1 542/542/1 547/547/1 553/553/1
f 549/549/1 543/543/1 548/548/1 554/554/1
f 550/550/1 544/544/1 549/549/1 555/555/1
f 551/551/1 545/545/1 550/550/1 556/556/1
f 558/558/1 552/552/1 551/551/1 557/557/1
f 554/554/1 548/548/1 553/553/1 559/559/1
f 555/555/1 549/549/1 554/554/1 560/560/1
f 556/556/1 550/550/1 555/555/1 561/561/1
f 557/557/1 551/551/1 556/556/1 562/562/1
f 564/564/1 558/558/1 557/557/1 563/563/1
f 560/560/1 554/554/1 559/559/1 565/565/1
f 561/561/1 555/555/1 560/560/1 566/566/1
f 562/562/1 556/556/1 561/561/1 567/567/1
f 563/563/1 557/557/1 562/562/1 568/568/1
f 570/570/1 564/564/1 563/563/1 569/569/1
f 566/566/1 560/560/1 565/565/1 571/571/1
f 567/567/1 561/561/1 566/566/1 572/572/1
f 568/568/1 562/562/1 567/567/1 573/573/1
f 569/569/1 563/563/1 568/568/1 574/574/1
f 576/576/1 570/570/1 569/569/1 575/575/1
f 572/572/1 566/566/1 571/571/1 577/577/1
f 573/573/1 567/567/1 572/572/1 578/578/1
f 574/574/1 568/568/1 573/573/1 579/579/1
f 575/575/1 569/569/1 574/574/1 580/580/1
f 582/582/1 576/576/1 575/575/1 581/581/1
f 578/578/1 572/572/1 577/577/1 583/583/1
f 579/579/1 573/573/1 578/578/1 584/584/1
f 580/580/1 574/574/1 579/579/1 585/585/1
f 581/581/1 575/575/1 580/580/1 586/586/1
f 588/588/1 582/582/1 581/581/1 587/587/1
f 584/584/1 578/578/1 583/583/1 589/589/1
f 585/585/1 579/579/1 584/584/1 590/590/1
f 586/586/1 580/580/1 585/585/1 591/591/1
f 587/587/1 581/581/1 586/586/1 592/592/1
f 594/594/1 588/588/1 587/587/1 593/593/1
f 590/590/1 584/584/1 589/589/1 595/595/1
f 591/591/1 585/585/1 590/590/1 596/596/1
f 592/592/1 586/586/1 591/591/1 597/597/1
f 593/593/1 587/587/1 592/592/1 598/598/1
f 600/600/1 594/594/1 593/593/1 599/599/1
f 596/596/1 590/590/1 595/595/1 601/601/1
f 597/597/1 591/591/1 596/596/1 602/602/1
f 598/598/1 592/592/1 597/597/1 603/603/1
f 599/599/1 593/593/1 598/598/1 604/604/1
f 606/606/1 600/600/1 599/599/1 605/605/1
f 602/602/1 596/596/1 601/601/1 607/607/1
f 603/603/1 597/597/1 602/602/1 608/608/1
f 604/604/1 598/598/1 603/603/1 609/609/1
f 605/605/1 599/599/1 604/604/1 610/610/1
f 612/612/1 606/606/1 605/605/1 611/611/1
f 608/608/1 602/602/1 607/607/1 613/613/1
f 609/609/1 603/603/1 608/608/1 614/614/1
f 610/610/1 604/604/1 609/609/1 615/615/1
f 611/611/1 605/605/1 610/610/1 616/616/1
f 618/618/1 612/612/1 611/611/1 617/617/1
f 614/614/1 608/608/1 613/613/1 619/619/1
f 615/615/1 609/609/1 614/614/1 620/620/1
f 616/616/1 610/610/1 615/615/1 621/621/1
f 617/617/1 611/611/1 616/616/1 622/622/1
f 624/624/1 618/618/1 617/617/1 623/623/1
f 620/620/1 614/614/1 619/619/1 625/625/1
f 621/621/1 615/615/1 620/620/1 626/626/1
f 622/622/1 616/616/1 621/621/1 627/627/1
f 623/623/1 617/617/1 622/622/1 628/628/1
f 630/630/1 624/624/1 623/623/1 629/629/1
f 626/626/1 620/620/1 625/625/1 631/631/1
f 627/627/1 621/621/1 626/626/1 632/632/1
f 628/628/1 622/622/1 627/627/1 633/633/1
f 629/629/1 623/623/1 628/628/1 634/634/1
f 632/632/1 626/626/1 631/631/1 635/635/1
f 633/633/1 627/627/1 632/632/1 636/636/1
f 634/634/1 628/628/1 633/633/1 637/637/1
f 636/636/1 632/632/1 635/635/1 638/638/1
f 637/637/1 633/633/1 636/636/1 639/639/1
f 639/639/1 636/636/1 638/638/1 640/640/1
f 644/644/1 641/641/1 643/643/1 642/642/1
f 642/642/1 643/643/1 646/646/1 645/645/1
f 648/648/1 644/644/1 642/642/1 647/647/1
f 645/645/1 646/646/1 650/650/1 649/649/1
f 647/647/1 642/642/1 645/645/1 651/651/1
f 653/653/1 648/648/1 647/647/1 652/652/1
f 649/649/1 650/650/1 655/655/1 654/654/1
f 651/651/1 645/645/1 649/649/1 656/656/1
f 652/652/1 647/647/1 651/651/1 657/657/1
f 659/659/1 653/653/1 652/652/1 658/658/1
f 654/654/1 655/655/1 661/661/1 660/660/1
f 656/656/1 649/649/1 654/654/1 662/662/1
f 657/657/1 651/651/1 656/656/1 663/663/1
f 658/658/1 652/652/1 657/657/1 664/664/1
f 666/666/1 659/659/1 658/658/1 665/665/1
f 662/662/1 654/654/1 660/660/1 667/667/1
f 663/663/1 656/656/1 662/662/1 668/668/1
f 664/664/1 657/657/1 663/663/1 669/669/1
f 665/665/1 658/658/1 664/664/1 670/670/1
f 672/672/1 666/666/1 665/665/1 671/671/1
f 668/668/1 662/662/1 667/667/1 673/673/1
f 669/669/1 663/663/1 668/668/1 674/674/1
f 670/670/1 664/664/1 669/669/1 675/675/1
f 671/671/1 665/665/1 670/670/1 676/676/1
f 678/678/1 672/672/1 671/671/1 677/677/1
f 674/674/1 668/668/1 673/673/1 679/679/1
f 675/675/1 669/669/1 674/674/1 680/680/1
f 676/676/1 670/670/1 675/675/1 681/681/1
f 677/677/1 671/671/1 676/676/1 682/682/1
f 684/684/1 678/678/1 677/677/1 683/683/1
f 680/680/1 674/674/1 679/679/1 685/685/1
f 681/681/1 675/675/1 680/680/1 686/686/1
f 682/682/1 676/676/1 681/681/1 687/687/1
f 683/683/1 677/677/1 682/682/1 688/688/1
f 690/690/1 684/684/1 683/683/1 689/689/1
f 686/686/1 680/680/1 685/685/1 691/691/1
f 687/687/1 681/681/1 686/686/1 692/692/1
f 688/688/1 682/682/1 687/687/1 693/693/1
f 689/689/1 683/683/1 688/688/1 694/694/1
f 696/696/1 690/690/1 689/689/1 695/695/1
f 692/692/1 686/686/1 691/691/1 697/697/1
f 693/693/1 687/687/1 692/692/1 698/698/1
f 694/694/1 688/688/1 693/693/1 699/699/1
f 695/695/1 689/689/1 694/694/1 700/700/1
f 702/702/1 696/696/1 695/695/1 701/701/1
f 698/698/1 692/692/1 697/697/1 703/703/1
f 699/699/1 693/693/1 698/698/1 704/704/1
f 700/700/1 694/694/1 699/699/1 705/705/1
f 701/701/1 695/695/1 700/700/1 706/706/1
f 708/708/1 702/702/1 701/701/1 707/707/1
f 704/704/1 698/698/1 703/703/1 709/709/1
f 705/705/1 699/699/1 704/704/1 710/710/1
f 706/706/1 700/700/1 705/705/1 711/711/1
f 707/707/1 701/701/1 706/706/1 712/712/1
f 714/714/1 708/708/1 707/707/1 713/713/1
f 710/710/1 704/704/1 709/709/1 715/715/1
f 711/711/1 705/705/1 710/710/1 716/716/1
f 712/712/1 706/706/1 711/711/1 717/717/1
f 713/713/1 707/707/1 712/712/1 718/718/1
f 720/720/1 714/714/1 713/713/1 719/719/1
f 716/716/1 710/710/1 715/715/1 721/721/1
f 717/717/1 711/711/1 716/716/1 722/722/1
f 718/718/1 712/712/1 717/717/1 723/723/1
f 719/719/1 713/713/1 718/718/1 724/724/1
f 726/726/1 720/720/1 719/719/1 725/725/1
f 722/722/1 716/716/1 721/721/1 727/727/1
f 723/723/1 717/717/1 722/722/1 728/728/1
f 724/724/1 718/718/1 723/723/1 729/729/1
f 725/725/1 719/719/1 724/724/1 730/730/1
f 732/732/1 726/726/1 725/725/1 731/731/1
f 728/728/1 722/722/1 727/727/1 733/733/1
f 729/729/1 723/723/1 728/728/1 734/734/1
f 730/730/1 724/724/1 729/729/1 735/735/1
f 731/731/1 725/725/1 730/730/1 736/736/1
f 738/738/1 732/732/1 731/731/1 737/737/1
f 734/734/1 728/728/1 733/733/1 739/739/1
f 735/735/1 729/729/1 734/734/1 740/740/1
f 736/736/1 730/730/1 735/735/1 741/741/1
f 737/737/1 731/731/1 736/736/1 742/742/1
f 744/744/1 738/738/1 737/737/1 743/743/1
f 740/740/1 734/734/1 739/739/1 745/745/1
f 741/741/1 735/735/1 740/740/1 746/746/1
f 742/742/1 736/736/1 741/741/1 747/747/1
f 743/743/1 737/737/1 742/742/1 748/748/1
f 750/750/1 744/744/1 743/743/1 749/749/1
f 746/746/1 740/740/1 745/745/1 751/751/1
f 747/747/1 741/741/1 746/746/1 752/752/1
f 748/748/1 742/742/1 747/747/1 753/753/1
f 749/749/1 743/743/1 748/748/1 754/754/1
f 38/38/1 750/750/1 749/749/1 755/755/1
f 754/754/1 756/756/1 755/755/1 749/749/1
f 756/756/1 757/757/1 37/37/1 755/755/1
f 753/753/1 758/758/1 754/754/1 748/748/1
f 752/752/1 759/759/1 753/753/1 747/747/1
f 758/758/1 760/760/1 756/756/1 754/754/1
f 762/762/1 761/761/1 41/41/1 757/757/1
f 763/763/1 51/51/1 42/42/1 761/761/1
f 760/760/1 762/762/1 757/757/1 756/756/1
f 765/765/1 763/763/1 761/761/1 762/762/1
f 767/767/1 66/66/1 51/51/1 763/763/1
f 759/759/1 764/764/1 758/758/1 753/753/1
f 766/766/1 765/765/1 762/762/1 760/760/1
f 764/764/1 766/766/1 760/760/1 758/758/1
f 768/768/1 767/767/1 763/763/1 765/765/1
f 769/769/1 768/768/1 765/765/1 766/766/1
f 770/770/1 769/769/1 766/766/1 764/764/1
f 786/786/1 770/770/1 764/764/1 759/759/1
f 772/772/1 771/771/1 66/66/1 767/767/1
f 773/773/1 67/67/1 56/56/1 771/771/1
f 774/774/1 772/772/1 767/767/1 768/768/1
f 776/776/1 773/773/1 771/771/1 772/772/1
f 775/775/1 77/77/1 67/67/1 773/773/1
f 778/778/1 774/774/1 768/768/1 769/769/1
f 93/93/1 82/82/1 77/77/1 775/775/1
f 777/777/1 775/775/1 773/773/1 776/776/1
f 779/779/1 776/776/1 772/772/1 774/774/1
f 108/108/1 93/93/1 775/775/1 777/777/1
f 783/783/1 778/778/1 769/769/1 770/770/1
f 780/780/1 777/777/1 776/776/1 779/779/1
f 781/781/1 779/779/1 774/774/1 778/778/1
f 114/114/1 108/108/1 777/777/1 780/780/1
f 782/782/1 780/780/1 779/779/1 781/781/1
f 120/120/1 114/114/1 780/780/1 782/782/1
f 784/784/1 781/781/1 778/778/1 783/783/1
f 785/785/1 782/782/1 781/781/1 784/784/1
f 126/126/1 120/120/1 782/782/1 785/785/1
f 787/787/1 783/783/1 770/770/1 786/786/1
f 788/788/1 786/786/1 759/759/1 752/752/1
f 789/789/1 784/784/1 783/783/1 787/787/1
f 791/791/1 787/787/1 786/786/1 788/788/1
f 751/751/1 788/788/1 752/752/1 746/746/1
f 790/790/1 785/785/1 784/784/1 789/789/1
f 132/132/1 126/126/1 785/785/1 790/790/1
f 794/794/1 791/791/1 788/788/1 751/751/1
f 792/792/1 789/789/1 787/787/1 791/791/1
f 793/793/1 790/790/1 789/789/1 792/792/1
f 138/138/1 132/132/1 790/790/1 793/793/1
f 795/795/1 792/792/1 791/791/1 794/794/1
f 797/797/1 794/794/1 751/751/1 745/745/1
f 796/796/1 793/793/1 792/792/1 795/795/1
f 144/144/1 138/138/1 793/793/1 796/796/1
f 798/798/1 795/795/1 794/794/1 797/797/1
f 800/800/1 797/797/1 745/745/1 739/739/1
f 799/799/1 796/796/1 795/795/1 798/798/1
f 150/150/1 144/144/1 796/796/1 799/799/1
f 801/801/1 798/798/1 797/797/1 800/800/1
f 803/803/1 800/800/1 739/739/1 733/733/1
f 802/802/1 799/799/1 798/798/1 801/801/1
f 154/154/1 150/150/1 799/799/1 802/802/1
f 804/804/1 801/801/1 800/800/1 803/803/1
f 806/806/1 803/803/1 733/733/1 727/727/1
f 805/805/1 802/802/1 801/801/1 804/804/1
f 157/157/1 154/154/1 802/802/1 805/805/1
f 807/807/1 804/804/1 803/803/1 806/806/1
f 809/809/1 806/806/1 727/727/1 721/721/1
f 808/808/1 805/805/1 804/804/1 807/807/1
f 159/159/1 157/157/1 805/805/1 808/808/1
f 810/810/1 807/807/1 806/806/1 809/809/1
f 812/812/1 809/809/1 721/721/1 715/715/1
f 811/811/1 808/808/1 807/807/1 810/810/1
f 163/163/1 159/159/1 808/808/1 811/811/1
f 813/813/1 810/810/1 809/809/1 812/812/1
f 815/815/1 812/812/1 715/715/1 709/709/1
f 814/814/1 811/811/1 810/810/1 813/813/1
f 207/207/1 163/163/1 811/811/1 814/814/1
f 816/816/1 813/813/1 812/812/1 815/815/1
f 818/818/1 815/815/1 709/709/1 703/703/1
f 817/817/1 814/814/1 813/813/1 816/816/1
f 214/214/1 207/207/1 814/814/1 817/817/1
f 819/819/1 816/816/1 815/815/1 818/818/1
f 821/821/1 818/818/1 703/703/1 697/697/1
f 820/820/1 817/817/1 816/816/1 819/819/1
f 238/238/1 214/214/1 817/817/1 820/820/1
f 822/822/1 819/819/1 818/818/1 821/821/1
f 824/824/1 821/821/1 697/697/1 691/691/1
f 823/823/1 820/820/1 819/819/1 822/822/1
f 245/245/1 238/238/1 820/820/1 823/823/1
f 825/825/1 822/822/1 821/821/1 824/824/1
f 827/827/1 824/824/1 691/691/1 685/685/1
f 826/826/1 823/823/1 822/822/1 825/825/1
f 265/265/1 245/245/1 823/823/1 826/826/1
f 828/828/1 825/825/1 824/824/1 827/827/1
f 830/830/1 827/827/1 685/685/1 679/679/1
f 829/829/1 826/826/1 825/825/1 828/828/1
f 271/271/1 265/265/1 826/826/1 829/829/1
f 831/831/1 828/828/1 827/827/1 830/830/1
f 833/833/1 830/830/1 679/679/1 673/673/1
f 832/832/1 829/829/1 828/828/1 831/831/1
f 288/288/1 271/271/1 829/829/1 832/832/1
f 834/834/1 831/831/1 830/830/1 833/833/1
f 836/836/1 833/833/1 673/673/1 667/667/1
f 835/835/1 832/832/1 831/831/1 834/834/1
f 293/293/1 288/288/1 832/832/1 835/835/1
f 837/837/1 834/834/1 833/833/1 836/836/1
f 839/839/1 836/836/1 667/667/1 660/660/1
f 838/838/1 835/835/1 834/834/1 837/837/1
f 307/307/1 293/293/1 835/835/1 838/838/1
f 840/840/1 837/837/1 836/836/1 839/839/1
f 842/842/1 839/839/1 660/660/1 661/661/1
f 841/841/1 838/838/1 837/837/1 840/840/1
f 315/315/1 307/307/1 838/838/1 841/841/1
f 843/843/1 840/840/1 839/839/1 842/842/1
f 844/844/1 841/841/1 840/840/1 843/843/1
f 321/321/1 315/315/1 841/841/1 844/844/1
f 851/851/1 846/846/1 383/383/1 845/845/1
f 852/852/1 847/847/1 382/382/1 846/846/1
f 853/853/1 848/848/1 381/381/1 847/847/1
f 854/854/1 849/849/1 380/380/1 848/848/1
f 855/855/1 850/850/1 385/385/1 849/849/1
f 859/859/1 852/852/1 846/846/1 851/851/1
f 858/858/1 853/853/1 847/847/1 852/852/1
f 856/856/1 854/854/1 848/848/1 853/853/1
f 857/857/1 855/855/1 849/849/1 854/854/1
f 862/862/1 857/857/1 854/854/1 856/856/1
f 861/861/1 856/856/1 853/853/1 858/858/1
f 860/860/1 858/858/1 852/852/1 859/859/1
f 863/863/1 861/861/1 858/858/1 860/860/1
f 864/864/1 862/862/1 856/856/1 861/861/1
f 865/865/1 864/864/1 861/861/1 863/863/1
f 867/867/1 866/866/1 640/640/1 638/638/1
f 869/869/1 867/867/1 638/638/1 635/635/1
f 870/870/1 868/868/1 866/866/1 867/867/1
f 871/871/1 869/869/1 635/635/1 631/631/1
f 873/873/1 870/870/1 867/867/1 869/869/1
f 874/874/1 871/871/1 631/631/1 625/625/1
f 875/875/1 872/872/1 868/868/1 870/870/1
f 876/876/1 873/873/1 869/869/1 871/871/1
f 877/877/1 874/874/1 625/625/1 619/619/1
f 879/879/1 875/875/1 870/870/1 873/873/1
f 880/880/1 876/876/1 871/871/1 874/874/1
f 881/881/1 877/877/1 619/619/1 613/613/1
f 882/882/1 878/878/1 872/872/1 875/875/1
f 883/883/1 879/879/1 873/873/1 876/876/1
f 884/884/1 880/880/1 874/874/1 877/877/1
f 885/885/1 881/881/1 613/613/1 607/607/1
f 887/887/1 882/882/1 875/875/1 879/879/1
f 888/888/1 883/883/1 876/876/1 880/880/1
f 889/889/1 884/884/1 877/877/1 881/881/1
f 890/890/1 885/885/1 607/607/1 601/601/1
f 891/891/1 886/886/1 878/878/1 882/882/1
f 892/892/1 887/887/1 879/879/1 883/883/1
f 893/893/1 888/888/1 880/880/1 884/884/1
f 894/894/1 889/889/1 881/881/1 885/885/1
f 895/895/1 890/890/1 601/601/1 595/595/1
f 896/896/1 891/891/1 882/882/1 887/887/1
f 897/897/1 892/892/1 883/883/1 888/888/1
f 898/898/1 893/893/1 884/884/1 889/889/1
f 899/899/1 894/894/1 885/885/1 890/890/1
f 900/900/1 895/895/1 595/595/1 589/589/1
f 901/901/1 896/896/1 887/887/1 892/892/1
f 902/902/1 897/897/1 888/888/1 893/893/1
f 903/903/1 898/898/1 889/889/1 894/894/1
f 904/904/1 899/899/1 890/890/1 895/895/1
f 905/905/1 900/900/1 589/589/1 583/583/1
f 906/906/1 901/901/1 892/892/1 897/897/1
f 907/907/1 902/902/1 893/893/1 898/898/1
f 908/908/1 903/903/1 894/894/1 899/899/1
f 909/909/1 904/904/1 895/895/1 900/900/1
f 910/910/1 905/905/1 583/583/1 577/577/1
f 911/911/1 906/906/1 897/897/1 902/902/1
f 912/912/1 907/907/1 898/898/1 903/903/1
f 913/913/1 908/908/1 899/899/1 904/904/1
f 914/914/1 909/909/1 900/900/1 905/905/1
f 915/915/1 910/910/1 577/577/1 571/571/1
f 916/916/1 911/911/1 902/902/1 907/907/1
f 917/917/1 912/912/1 903/903/1 908/908/1
f 918/918/1 913/913/1 904/904/1 909/909/1
f 919/919/1 914/914/1 905/905/1 910/910/1
f 920/920/1 915/915/1 571/571/1 565/565/1
f 921/921/1 916/916/1 907/907/1 912/912/1
f 922/922/1 917/917/1 908/908/1 913/913/1
f 923/923/1 918/918/1 909/909/1 914/914/1
f 924/924/1 919/919/1 910/910/1 915/915/1
f 925/925/1 920/920/1 565/565/1 559/559/1
f 926/926/1 921/921/1 912/912/1 917/917/1
f 927/927/1 922/922/1 913/913/1 918/918/1
f 928/928/1 923/923/1 914/914/1 919/919/1
f 929/929/1 924/924/1 915/915/1 920/920/1
f 930/930/1 925/925/1 559/559/1 553/553/1
f 931/931/1 926/926/1 917/917/1 922/922/1
f 932/932/1 927/927/1 918/918/1 923/923/1
f 933/933/1 928/928/1 919/919/1 924/924/1
f 934/934/1 929/929/1 920/920/1 925/925/1
f 935/935/1 930/930/1 553/553/1 547/547/1
f 936/936/1 931/931/1 922/922/1 927/927/1
f 937/937/1 932/932/1 923/923/1 928/928/1
f 938/938/1 933/933/1 924/924/1 929/929/1
f 939/939/1 934/934/1 925/925/1 930/930/1
f 940/940/1 935/935/1 547/547/1 541/541/1
f 941/941/1 936/936/1 927/927/1 932/932/1
f 942/942/1 937/937/1 928/928/1 933/933/1
f 943/943/1 938/938/1 929/929/1 934/934/1
f 944/944/1 939/939/1 930/930/1 935/935/1
f 945/945/1 940/940/1 541/541/1 535/535/1
f 946/946/1 941/941/1 932/932/1 937/937/1
f 947/947/1 942/942/1 933/933/1 938/938/1
f 948/948/1 943/943/1 934/934/1 939/939/1
f 949/949/1 944/944/1 935/935/1 940/940/1
f 950/950/1 945/945/1 535/535/1 529/529/1
f 951/951/1 946/946/1 937/937/1 942/942/1
f 952/952/1 947/947/1 938/938/1 943/943/1
f 953/953/1 948/948/1 939/939/1 944/944/1
f 954/954/1 949/949/1 940/940/1 945/945/1
f 955/955/1 950/950/1 529/529/1 523/523/1
f 956/956/1 951/951/1 942/942/1 947/947/1
f 957/957/1 952/952/1 943/943/1 948/948/1
f 958/958/1 953/953/1 944/944/1 949/949/1
f 959/959/1 954/954/1 945/945/1 950/950/1
f 960/960/1 955/955/1 523/523/1 517/517/1
f 961/961/1 956/956/1 947/947/1 952/952/1
f 962/962/1 957/957/1 948/948/1 953/953/1
f 963/963/1 958/958/1 949/949/1 954/954/1
f 964/964/1 959/959/1 950/950/1 955/955/1
f 965/965/1 960/960/1 517/517/1 502/502/1
f 993/993/1 961/961/1 952/952/1 957/957/1
f 969/969/1 962/962/1 953/953/1 958/958/1
f 968/968/1 963/963/1 954/954/1 959/959/1
f 966/966/1 964/964/1 955/955/1 960/960/1
f 486/486/1 965/965/1 502/502/1 491/491/1
f 967/967/1 966/966/1 960/960/1 965/965/1
f 471/471/1 967/967/1 965/965/1 486/486/1
f 970/970/1 968/968/1 959/959/1 964/964/1
f 973/973/1 969/969/1 958/958/1 963/963/1
f 972/972/1 970/970/1 964/964/1 966/966/1
f 465/465/1 971/971/1 967/967/1 471/471/1
f 971/971/1 972/972/1 966/966/1 967/967/1
f 976/976/1 973/973/1 963/963/1 968/968/1
f 972/972/1 971/971/1 466/466/1 974/974/1
f 974/974/1 975/975/1 970/970/1 972/972/1
f 975/975/1 976/976/1 968/968/1 970/970/1
f 457/457/1 977/977/1 974/974/1 466/466/1
f 977/977/1 978/978/1 975/975/1 974/974/1
f 978/978/1 977/977/1 456/456/1 979/979/1
f 978/978/1 980/980/1 976/976/1 975/975/1
f 980/980/1 981/981/1 973/973/1 976/976/1
f 983/983/1 979/979/1 453/453/1 982/982/1
f 984/984/1 982/982/1 407/407/1 405/405/1
f 980/980/1 978/978/1 979/979/1 983/983/1
f 985/985/1 983/983/1 982/982/1 984/984/1
f 986/986/1 984/984/1 405/405/1 403/403/1
f 981/981/1 980/980/1 983/983/1 985/985/1
f 988/988/1 985/985/1 984/984/1 986/986/1
f 989/989/1 986/986/1 403/403/1 401/401/1
f 969/969/1 973/973/1 981/981/1 987/987/1
f 987/987/1 981/981/1 985/985/1 988/988/1
f 991/991/1 988/988/1 986/986/1 989/989/1
f 992/992/1 989/989/1 401/401/1 399/399/1
f 962/962/1 969/969/1 987/987/1 990/990/1
f 990/990/1 987/987/1 988/988/1 991/991/1
f 994/994/1 991/991/1 989/989/1 992/992/1
f 995/995/1 992/992/1 399/399/1 397/397/1
f 957/957/1 962/962/1 990/990/1 993/993/1
f 993/993/1 990/990/1 991/991/1 994/994/1
f 996/996/1 994/994/1 992/992/1 995/995/1
f 997/997/1 995/995/1 397/397/1 395/395/1
f 961/961/1 993/993/1 994/994/1 996/996/1
f 998/998/1 996/996/1 995/995/1 997/997/1
f 999/999/1 997/997/1 395/395/1 393/393/1
f 956/956/1 961/961/1 996/996/1 998/998/1
f 1000/1000/1 998/998/1 997/997/1 999/999/1
f 1001/1001/1 999/999/1 393/393/1 392/392/1
f 951/951/1 956/956/1 998/998/1 1000/1000/1
f 1002/1002/1 1000/1000/1 999/999/1 1001/1001/1
f 1003/1003/1 1001/1001/1 392/392/1 391/391/1
f 946/946/1 951/951/1 1000/1000/1 1002/1002/1
f 1004/1004/1 1002/1002/1 1001/1001/1 1003/1003/1
f 1005/1005/1 1003/1003/1 391/391/1 390/390/1
f 941/941/1 946/946/1 1002/1002/1 1004/1004/1
f 1006/1006/1 1004/1004/1 1003/1003/1 1005/1005/1
f 1007/1007/1 1005/1005/1 390/390/1 389/389/1
f 936/936/1 941/941/1 1004/1004/1 1006/1006/1
f 1008/1008/1 1006/1006/1 1005/1005/1 1007/1007/1
f 1009/1009/1 1007/1007/1 389/389/1 388/388/1
f 931/931/1 936/936/1 1006/1006/1 1008/1008/1
f 1010/1010/1 1008/1008/1 1007/1007/1 1009/1009/1
f 1011/1011/1 1009/1009/1 388/388/1 386/386/1
f 926/926/1 931/931/1 1008/1008/1 1010/1010/1
f 1012/1012/1 1010/1010/1 1009/1009/1 1011/1011/1
f 1013/1013/1 1011/1011/1 386/386/1 387/387/1
f 921/921/1 926/926/1 1010/1010/1 1012/1012/1
f 1014/1014/1 1012/1012/1 1011/1011/1 1013/1013/1
f 1015/1015/1 1013/1013/1 387/387/1 850/850/1
f 916/916/1 921/921/1 1012/1012/1 1014/1014/1
f 1016/1016/1 1014/1014/1 1013/1013/1 1015/1015/1
f 1017/1017/1 1015/1015/1 850/850/1 855/855/1
f 911/911/1 916/916/1 1014/1014/1 1016/1016/1
f 1018/1018/1 1016/1016/1 1015/1015/1 1017/1017/1
f 1019/1019/1 1017/1017/1 855/855/1 857/857/1
f 906/906/1 911/911/1 1016/1016/1 1018/1018/1
f 1020/1020/1 1018/1018/1 1017/1017/1 1019/1019/1
f 1021/1021/1 1019/1019/1 857/857/1 862/862/1
f 901/901/1 906/906/1 1018/1018/1 1020/1020/1
f 1022/1022/1 1020/1020/1 1019/1019/1 1021/1021/1
f 1023/1023/1 1021/1021/1 862/862/1 864/864/1
f 896/896/1 901/901/1 1020/1020/1 1022/1022/1
f 1024/1024/1 1022/1022/1 1021/1021/1 1023/1023/1
f 1025/1025/1 1023/1023/1 864/864/1 865/865/1
f 891/891/1 896/896/1 1022/1022/1 1024/1024/1
f 1026/1026/1 1024/1024/1 1023/1023/1 1025/1025/1
f 886/886/1 891/891/1 1024/1024/1 1026/1026/1

