%YAML 1.1
%TAG !u! tag:unity3d.com,2011:
--- !u!114 &11400000
MonoBehaviour:
  m_ObjectHideFlags: 0
  m_CorrespondingSourceObject: {fileID: 0}
  m_PrefabInstance: {fileID: 0}
  m_PrefabAsset: {fileID: 0}
  m_GameObject: {fileID: 0}
  m_Enabled: 1
  m_EditorHideFlags: 0
  m_Script: {fileID: 11500000, guid: e05f2a6edf180c649bf22ae89fa49a16, type: 3}
  m_Name: Cellar
  m_EditorClassIdentifier: 
  direction: 0
  plugs:
  - {fileID: 11400000, guid: 194d206fff9bd26428063cc7fcb77819, type: 2}
  - {fileID: 11400000, guid: 928730acd7e0b304487a41471fed4431, type: 2}
  - {fileID: 11400000, guid: a8caac80aa29e7d48906f8d54f0e95d5, type: 2}
  - {fileID: 11400000, guid: 286c4f35248d89f45b872c9acf095df8, type: 2}
